(136, 548)
(391, 572)
(681, 854)
(905, 789)
(135, 496)
(927, 907)
(212, 725)
(42, 979)
(137, 783)
(306, 715)
(972, 901)
(558, 546)
(895, 712)
(375, 197)
(203, 565)
(769, 318)
(294, 206)
(651, 326)
(237, 577)
(165, 73)
(953, 901)
(343, 686)
(769, 828)
(632, 927)
(149, 601)
(201, 992)
(97, 662)
(627, 703)
(667, 794)
(262, 730)
(87, 342)
(519, 278)
(530, 320)
(630, 620)
(803, 278)
(293, 181)
(717, 605)
(818, 630)
(963, 473)
(815, 36)
(84, 239)
(857, 431)
(213, 220)
(561, 585)
(138, 22)
(820, 77)
(820, 471)
(429, 741)
(883, 779)
(153, 0)
(53, 105)
(543, 390)
(554, 935)
(668, 588)
(105, 825)
(580, 959)
(590, 116)
(497, 3)
(451, 563)
(256, 440)
(304, 273)
(815, 70)
(85, 927)
(746, 970)
(741, 313)
(327, 183)
(718, 727)
(633, 601)
(428, 942)
(256, 434)
(640, 677)
(974, 211)
(910, 35)
(882, 968)
(609, 168)
(468, 602)
(161, 1021)
(471, 735)
(272, 158)
(245, 134)
(948, 716)
(422, 17)
(573, 428)
(900, 521)
(263, 884)
(141, 1006)
(643, 241)
(627, 43)
(318, 636)
(262, 186)
(678, 72)
(896, 811)
(344, 70)
(225, 237)
(869, 178)
(822, 544)
(297, 798)
(983, 978)
(398, 892)
(418, 859)
(61, 926)
(371, 490)
(488, 90)
(746, 386)
(647, 786)
(353, 921)
(895, 75)
(851, 686)
(132, 272)
(561, 810)
(86, 128)
(609, 375)
(982, 775)
(513, 985)
(427, 556)
(800, 233)
(962, 157)
(817, 499)
(203, 874)
(685, 513)
(1022, 242)
(369, 411)
(213, 493)
(505, 707)
(427, 41)
(572, 199)
(1011, 711)
(731, 43)
(608, 621)
(724, 680)
(735, 506)
(551, 716)
(664, 993)
(365, 357)
(448, 685)
(856, 458)
(168, 246)
(311, 123)
(684, 832)
(328, 772)
(392, 372)
(686, 108)
(459, 313)
(55, 235)
(355, 485)
(136, 280)
(258, 197)
(157, 943)
(686, 427)
(569, 716)
(877, 115)
(326, 113)
(26, 612)
(62, 489)
(292, 1001)
(751, 12)
(342, 561)
(119, 381)
(115, 7)
(654, 289)
(859, 1004)
(214, 597)
(779, 376)
(555, 1004)
(202, 108)
(802, 545)
(560, 354)
(65, 10)
(293, 138)
(366, 881)
(981, 693)
(129, 260)
(162, 146)
(721, 575)
(744, 328)
(836, 261)
(30, 325)
(414, 258)
(410, 795)
(734, 386)
(336, 476)
(645, 829)
(468, 397)
(255, 52)
(33, 582)
(358, 175)
(194, 304)
(435, 615)
(105, 582)
(343, 377)
(439, 174)
(799, 384)
(928, 599)
(360, 510)
(676, 111)
(307, 867)
(786, 508)
(447, 358)
(672, 620)
(224, 930)
(133, 174)
(101, 766)
(885, 314)
(573, 209)
(780, 265)
(234, 565)
(876, 504)
(297, 298)
(421, 461)
(768, 742)
(698, 393)
(153, 665)
(322, 675)
(926, 379)
(15, 209)
(329, 773)
(74, 837)
(161, 426)
(772, 826)
(232, 853)
(929, 238)
(830, 248)
(922, 398)
(32, 931)
(436, 74)
(226, 46)
(775, 633)
(277, 442)
(11, 950)
(717, 948)
(660, 496)
(138, 224)
(133, 245)
(745, 311)
(676, 800)
(169, 63)
(627, 467)
(720, 114)
(1006, 923)
(371, 365)
(143, 436)
(398, 527)
(576, 525)
(794, 366)
(272, 929)
(935, 592)
(322, 404)
(500, 427)
(548, 835)
(39, 559)
(149, 253)
(434, 737)
(979, 457)
(678, 972)
(336, 718)
(191, 784)
(968, 287)
(1007, 581)
(809, 236)
(243, 628)
(150, 295)
(273, 676)
(552, 273)
(944, 705)
(692, 431)
(67, 334)
(465, 102)
(1023, 346)
(281, 888)
(538, 238)
(864, 934)
(818, 38)
(692, 1020)
(870, 1018)
(990, 472)
(39, 424)
(310, 1006)
(366, 884)
(270, 53)
(728, 131)
(188, 623)
(220, 835)
(300, 841)
(514, 583)
(775, 469)
(290, 665)
(476, 8)
(11, 845)
(479, 21)
(915, 941)
(260, 792)
(66, 36)
(649, 332)
(330, 182)
(444, 507)
(92, 230)
(503, 342)
(551, 540)
(1017, 469)
(759, 288)
(702, 844)
(131, 36)
(504, 719)
(48, 75)
(850, 1006)
(93, 225)
(536, 219)
(771, 294)
(212, 206)
(951, 648)
(489, 192)
(177, 716)
(996, 28)
(56, 648)
(496, 322)
(267, 751)
(878, 423)
(577, 642)
(110, 374)
(221, 439)
(564, 561)
(597, 945)
(643, 1015)
(290, 327)
(376, 439)
(175, 642)
(1009, 8)
(779, 735)
(447, 409)
(261, 167)
(975, 835)
(651, 632)
(920, 175)
(333, 424)
(636, 526)
(428, 572)
(428, 491)
(423, 149)
(972, 404)
(187, 276)
(951, 625)
(706, 196)
(441, 643)
(533, 174)
(156, 574)
(344, 577)
(449, 673)
(295, 210)
(961, 847)
(145, 131)
(500, 267)
(1023, 663)
(304, 121)
(134, 763)
(549, 285)
(247, 47)
(496, 782)
(976, 140)
(559, 641)
(598, 692)
(453, 272)
(99, 234)
(544, 672)
(771, 649)
(289, 689)
(423, 619)
(784, 891)
(229, 303)
(146, 523)
(137, 269)
(718, 747)
(997, 411)
(714, 153)
(788, 625)
(790, 706)
(658, 875)
(358, 40)
(819, 645)
(462, 252)
(141, 294)
(125, 786)
(299, 588)
(34, 784)
(276, 71)
(380, 660)
(840, 803)
(264, 107)
(761, 456)
(992, 169)
(561, 416)
(660, 871)
(759, 633)
(998, 641)
(878, 287)
(405, 1017)
(459, 599)
(369, 743)
(466, 313)
(142, 20)
(222, 413)
(903, 971)
(912, 886)
(762, 714)
(648, 89)
(358, 364)
(687, 892)
(657, 733)
(391, 44)
(282, 673)
(832, 249)
(131, 320)
(1009, 551)
(684, 80)
(656, 814)
(44, 265)
(148, 313)
(452, 426)
(941, 925)
(673, 454)
(402, 918)
(872, 373)
(689, 525)
(842, 451)
(88, 76)
(858, 358)
(344, 319)
(968, 810)
(568, 831)
(510, 573)
(872, 56)
(133, 263)
(532, 647)
(354, 467)
(433, 709)
(840, 25)
(468, 127)
(841, 253)
(335, 251)
(638, 943)
(607, 743)
(470, 433)
(722, 18)
(589, 465)
(563, 999)
(366, 3)
(631, 519)
(183, 46)
(422, 3)
(615, 900)
(566, 930)
(871, 165)
(246, 893)
(441, 487)
(700, 202)
(103, 482)
(73, 530)
(926, 435)
(830, 240)
(744, 260)
(670, 971)
(116, 369)
(849, 960)
(232, 291)
(602, 345)
(704, 903)
(678, 433)
(586, 63)
(1023, 16)
(116, 241)
(61, 539)
(499, 286)
(843, 646)
(157, 615)
(389, 39)
(882, 462)
(146, 757)
(852, 595)
(873, 801)
(775, 797)
(1016, 626)
(386, 758)
(17, 721)
(417, 61)
(430, 841)
(997, 322)
(944, 931)
(283, 103)
(613, 479)
(828, 0)
(538, 127)
(288, 1001)
(731, 941)
(733, 470)
(759, 861)
(351, 15)
(280, 498)
(563, 647)
(530, 496)
(909, 682)
(786, 451)
(237, 572)
(760, 347)
(888, 714)
(491, 281)
(883, 333)
(896, 79)
(40, 819)
(464, 847)
(401, 878)
(167, 666)
(200, 210)
(570, 760)
(814, 999)
(348, 271)
(533, 448)
(769, 630)
(851, 360)
(98, 119)
(463, 384)
(981, 793)
(10, 172)
(344, 218)
(519, 843)
(619, 784)
(994, 789)
(106, 816)
(872, 205)
(692, 801)
(771, 199)
(518, 899)
(694, 638)
(651, 664)
(547, 963)
(530, 291)
(916, 570)
(584, 686)
(843, 538)
(874, 174)
(813, 273)
(689, 96)
(1020, 365)
(171, 4)
(37, 15)
(1007, 391)
(663, 611)
(408, 252)
(0, 10)
(445, 277)
(387, 245)
(775, 872)
(282, 695)
(809, 430)
(24, 889)
(200, 971)
(328, 310)
(666, 909)
(469, 463)
(935, 251)
(859, 168)
(65, 173)
(730, 153)
(292, 553)
(766, 837)
(353, 305)
(626, 942)
(913, 929)
(151, 745)
(133, 79)
(80, 751)
(777, 888)
(108, 90)
(801, 514)
(773, 202)
(724, 146)
(288, 817)
(20, 547)
(933, 505)
(875, 1000)
(640, 391)
(644, 899)
(111, 356)
(186, 193)
(243, 869)
(545, 208)
(16, 980)
(199, 268)
(209, 440)
(869, 994)
(936, 834)
(350, 990)
(764, 958)
(1007, 874)
(920, 239)
(190, 966)
(120, 298)
(453, 812)
(396, 416)
(998, 206)
(842, 199)
(794, 775)
(350, 569)
(90, 978)
(541, 994)
(831, 163)
(701, 848)
(667, 341)
(941, 761)
(875, 61)
(760, 736)
(34, 962)
(231, 655)
(964, 493)
(980, 197)
(378, 805)
(660, 67)
(814, 800)
(345, 904)
(199, 10)
(301, 727)
(391, 756)
(537, 523)
(565, 693)
(190, 782)
(435, 808)
(1013, 309)
(354, 673)
(845, 18)
(310, 582)
(539, 843)
(243, 512)
(418, 148)
(610, 966)
(424, 458)
(705, 702)
(157, 824)
(799, 535)
(245, 327)
(832, 57)
(742, 468)
(57, 982)
(940, 583)
(910, 8)
(391, 968)
(876, 935)
(283, 732)
(1000, 102)
(809, 810)
(937, 671)
(57, 592)
(1002, 786)
(207, 7)
(203, 276)
(103, 234)
(341, 88)
(384, 449)
(399, 943)
(49, 722)
(723, 528)
(529, 832)
(967, 295)
(754, 875)
(852, 803)
(494, 223)
(147, 186)
(140, 784)
(910, 359)
(284, 736)
(578, 365)
(531, 225)
(120, 838)
(331, 706)
(905, 922)
(51, 578)
(1021, 9)
(81, 986)
(704, 500)
(83, 826)
(621, 719)
(721, 86)
(276, 924)
(148, 549)
(259, 607)
(289, 716)
(452, 825)
(75, 985)
(727, 850)
(162, 73)
(421, 166)
(982, 95)
(672, 333)
(360, 149)
(934, 291)
(31, 686)
(507, 86)
(462, 313)
(1001, 615)
(353, 102)
(415, 983)
(449, 606)
(316, 918)
(917, 248)
(119, 855)
(75, 188)
(163, 534)
(196, 991)
(609, 301)
(519, 893)
(730, 100)
(971, 486)
(368, 491)
(471, 563)
(25, 744)
(188, 436)
(710, 537)
(84, 960)
(1009, 249)
(345, 631)
(259, 455)
(751, 166)
(361, 109)
(201, 1001)
(580, 465)
(790, 531)
(222, 157)
(982, 1002)
(527, 52)
(65, 962)
(364, 317)
(895, 149)
(141, 87)
(830, 48)
(816, 163)
(961, 57)
(860, 617)
(747, 252)
(998, 712)
(479, 768)
(179, 401)
(767, 443)
(865, 1021)
(411, 422)
(31, 658)
(1012, 339)
(545, 267)
(53, 20)
(157, 644)
(348, 444)
(107, 225)
(736, 655)
(849, 710)
(95, 237)
(69, 608)
(35, 183)
(841, 38)
(800, 669)
(134, 450)
(183, 840)
(648, 478)
(102, 596)
(389, 565)
(490, 385)
(507, 309)
(283, 775)
(741, 572)
(835, 510)
(792, 629)
(222, 869)
(193, 752)
(535, 852)
(16, 137)
(328, 86)
(580, 167)
(483, 890)
(749, 159)
(66, 839)
(683, 530)
(782, 834)
(379, 774)
(821, 260)
(869, 429)
(885, 467)
(577, 534)
(1017, 266)
(434, 590)
(949, 298)
(469, 994)
(987, 205)
(689, 857)
(1006, 854)
(436, 485)
(395, 979)
(813, 378)
(106, 809)
(461, 791)
(324, 570)
(659, 142)
(215, 718)
(673, 971)
(35, 577)
(61, 572)
(170, 962)
(1002, 460)
(122, 889)
(216, 5)
(25, 9)
(507, 137)
(343, 48)
(297, 806)
(399, 717)
(91, 841)
(806, 467)
(518, 675)
(58, 501)
(504, 366)
(32, 605)
(432, 355)
(671, 1011)
(439, 809)
(435, 396)
(631, 671)
(778, 388)
(46, 363)
(647, 978)
(703, 194)
(176, 978)
(396, 966)
(166, 536)
(1019, 323)
(346, 176)
(41, 1004)
(931, 1004)
(172, 290)
(86, 580)
(888, 158)
(404, 1021)
(951, 985)
(728, 948)
(452, 740)
(996, 529)
(560, 655)
(737, 57)
(73, 722)
(100, 211)
(958, 385)
(442, 645)
(238, 515)
(202, 488)
(917, 423)
(607, 703)
(614, 250)
(931, 176)
(785, 505)
(341, 964)
(929, 46)
(918, 257)
(855, 463)
(107, 434)
(828, 1003)
(54, 282)
(1014, 477)
(770, 589)
(412, 552)
(667, 624)
(939, 113)
(53, 400)
(510, 488)
(107, 944)
(36, 963)
(891, 105)
(507, 861)
(400, 9)
(880, 351)
(410, 217)
(0, 540)
(391, 499)
(501, 372)
(633, 80)
(430, 114)
(459, 548)
(953, 614)
(515, 257)
(863, 414)
(490, 287)
(652, 577)
(402, 217)
(424, 458)
(149, 700)
(724, 66)
(205, 731)
(305, 862)
(76, 427)
(187, 820)
(872, 132)
(277, 299)
(431, 3)
(427, 767)
(948, 1017)
(223, 957)
(798, 562)
(783, 636)
(810, 52)
(150, 41)
(274, 187)
(879, 738)
(613, 180)
(563, 535)
(791, 894)
(847, 772)
(357, 66)
(1009, 44)
(46, 227)
(633, 811)
(817, 130)
(410, 761)
(473, 643)
(844, 202)
(1003, 717)
(207, 585)
(320, 287)
(202, 1002)
(382, 94)
(464, 540)
(2, 817)
(994, 54)
(77, 713)
(555, 247)
(964, 6)
(748, 321)
(319, 157)
(513, 398)
(278, 125)
(670, 348)
(201, 873)
(338, 29)
(115, 748)
(156, 591)
(371, 190)
(323, 384)
(760, 858)
(327, 525)
(350, 610)
(367, 388)
(339, 664)
(469, 247)
(485, 1017)
(200, 718)
(246, 798)
(919, 699)
(909, 521)
(13, 511)
(920, 64)
(468, 305)
(631, 322)
(842, 81)
(400, 442)
(795, 301)
(785, 205)
(497, 334)
(239, 243)
(763, 779)
(311, 978)
(997, 683)
(945, 342)
(47, 124)
(86, 6)
(846, 369)
(508, 1019)
(639, 487)
(141, 368)
(807, 661)
(762, 8)
(930, 172)
(52, 411)
(440, 282)
(715, 948)
(219, 669)
(869, 356)
(385, 499)
(256, 530)
(529, 774)
(470, 346)
(476, 635)
(412, 684)
(848, 454)
(377, 843)
(1013, 520)
(776, 42)
(650, 225)
(183, 134)
(1022, 222)
(494, 945)
(146, 875)
(963, 606)
(1003, 91)
(898, 875)
(280, 888)
(522, 89)
(660, 608)
(455, 640)
(948, 991)
(675, 121)
(699, 161)
(657, 187)
(653, 878)
(646, 131)
(734, 509)
(1017, 692)
(997, 912)
(29, 855)
(95, 150)
(197, 932)
(719, 876)
(841, 302)
(133, 144)
(153, 898)
(318, 149)
(434, 25)
(406, 154)
(464, 119)
(565, 325)
(960, 816)
(885, 10)
(424, 161)
(883, 496)
(981, 658)
(789, 312)
(36, 977)
(380, 624)
(13, 923)
(366, 49)
(570, 863)
(546, 971)
(957, 700)
(746, 712)
(519, 748)
(366, 285)
(740, 88)
(743, 819)
(736, 914)
(45, 269)
(972, 628)
(778, 245)
(16, 964)
(360, 902)
(281, 587)
(680, 575)
(691, 276)
(784, 189)
(428, 414)
(981, 473)
(231, 52)
(749, 761)
(855, 600)
(794, 442)
(978, 724)
(968, 442)
(144, 956)
(691, 412)
(399, 834)
(933, 1002)
(425, 131)
(501, 431)
(301, 1000)
(736, 262)
(680, 539)
(680, 668)
(79, 1016)
(275, 588)
(569, 457)
(478, 244)
(856, 71)
(108, 345)
(483, 669)
(7, 636)
(626, 599)
(652, 384)
(513, 531)
(716, 175)
(672, 8)
(243, 532)
(276, 323)
(468, 973)
(729, 125)
(757, 81)
(12, 792)
(268, 779)
(1011, 564)
(670, 841)
(503, 178)
(151, 299)
(88, 459)
(469, 225)
(937, 619)
(451, 750)
(85, 688)
(441, 881)
(441, 341)
(891, 42)
(488, 63)
(192, 242)
(873, 808)
(278, 891)
(4, 375)
(759, 610)
(80, 440)
(895, 233)
(872, 958)
(985, 161)
(1010, 474)
(163, 65)
(958, 438)
(235, 514)
(181, 230)
(637, 982)
(624, 170)
(381, 863)
(260, 687)
(288, 925)
(151, 236)
(766, 920)
(832, 751)
(116, 929)
(310, 812)
(673, 278)
(342, 510)
(129, 203)
(252, 44)
(313, 425)
(552, 963)
(891, 79)
(506, 1010)
(860, 373)
(217, 900)
(724, 653)
(821, 117)
(554, 416)
(547, 273)
(64, 215)
(743, 660)
(689, 695)
(67, 936)
(14, 489)
(69, 134)
(769, 603)
(657, 768)
(523, 156)
(310, 341)
(580, 899)
(94, 63)
(371, 955)
(314, 830)
(844, 268)
(602, 734)
(207, 725)
(584, 493)
(825, 414)
(481, 298)
(490, 30)
(272, 322)
(966, 568)
(771, 502)
(640, 515)
(550, 472)
(714, 718)
(432, 56)
(597, 6)
(584, 627)
(9, 431)
(672, 636)
(949, 767)
(76, 977)
(756, 408)
(855, 609)
(894, 18)
(971, 141)
(372, 288)
(354, 1018)
(1002, 312)
(917, 558)
(918, 739)
(942, 450)
(643, 158)
(197, 800)
(890, 131)
(531, 38)
(23, 699)
(418, 277)
(634, 617)
(447, 569)
(321, 491)
(1004, 1009)
(696, 990)
(27, 247)
(788, 602)
(704, 108)
(820, 960)
(511, 15)
(879, 762)
(50, 219)
(567, 903)
(286, 647)
(457, 247)
(498, 1016)
(616, 717)
(372, 877)
(986, 736)
(152, 417)
(997, 176)
(386, 506)
(664, 326)
(368, 309)
(38, 1023)
(684, 906)
(864, 637)
(129, 110)
(558, 921)
(404, 222)
(1008, 875)
(334, 440)
(111, 339)
(1001, 847)
(383, 1010)
(540, 448)
(618, 882)
(733, 145)
(788, 826)
(559, 471)
(399, 460)
(475, 1007)
(961, 762)
(256, 362)
(205, 307)
(542, 871)
(622, 753)
(581, 848)
(992, 864)
(692, 914)
(305, 927)
(209, 2)
(384, 81)
(716, 755)
(314, 853)
(548, 137)
(562, 69)
(857, 850)
(395, 615)
(380, 149)
(314, 512)
(527, 461)
(891, 15)
(237, 704)
(537, 827)
(575, 405)
(173, 644)
(127, 650)
(12, 45)
(322, 488)
(243, 375)
(119, 738)
(138, 444)
(80, 643)
(561, 194)
(10, 565)
(491, 386)
(402, 648)
(909, 656)
(132, 604)
(451, 602)
(271, 906)
(515, 427)
(583, 769)
(601, 371)
(170, 368)
(437, 320)
(555, 364)
(746, 825)
(11, 610)
(9, 651)
(264, 452)
(417, 862)
(742, 284)
(388, 315)
(144, 793)
(225, 631)
(418, 901)
(907, 836)
(285, 435)
(517, 27)
(984, 723)
(382, 158)
(525, 126)
(554, 152)
(6, 878)
(693, 16)
(739, 1018)
(945, 417)
(153, 741)
(741, 787)
(340, 946)
(779, 688)
(891, 499)
(145, 981)
(936, 834)
(725, 249)
(344, 688)
(791, 641)
(631, 600)
(843, 991)
(1003, 979)
(28, 459)
(972, 562)
(54, 616)
(374, 321)
(781, 878)
(526, 16)
(413, 527)
(863, 7)
(470, 197)
(611, 654)
(232, 492)
(971, 981)
(352, 121)
(464, 142)
(348, 685)
(175, 708)
(972, 588)
(843, 756)
(784, 682)
(727, 266)
(676, 92)
(175, 258)
(304, 751)
(747, 566)
(919, 375)
(665, 748)
(59, 415)
(757, 681)
(933, 815)
(1000, 275)
(515, 424)
(818, 201)
(621, 691)
(792, 334)
(849, 585)
(457, 826)
(385, 884)
(100, 1023)
(515, 679)
(215, 8)
(419, 965)
(601, 326)
(380, 666)
(961, 320)
(129, 358)
(963, 570)
(11, 631)
(678, 297)
(853, 437)
(10, 1021)
(998, 535)
(1004, 357)
(992, 785)
(776, 663)
(776, 717)
(872, 402)
(245, 245)
(272, 277)
(678, 597)
(734, 689)
(276, 32)
(929, 317)
(1004, 7)
(55, 526)
(552, 414)
(981, 732)
(800, 899)
(490, 550)
(909, 720)
(246, 354)
(731, 442)
(604, 66)
(245, 229)
(953, 245)
(489, 275)
(994, 570)
(539, 653)
(419, 214)
(137, 819)
(314, 402)
(1018, 483)
(809, 499)
(629, 535)
(93, 37)
(989, 824)
(15, 850)
(841, 930)
(843, 164)
(599, 729)
(412, 837)
(833, 442)
(848, 673)
(776, 818)
(868, 20)
(409, 1017)
(682, 97)
(676, 230)
(428, 114)
(84, 682)
(1008, 925)
(143, 751)
(280, 422)
(750, 144)
(314, 744)
(363, 327)
(657, 386)
(987, 602)
(477, 173)
(157, 17)
(279, 820)
(495, 370)
(427, 83)
(516, 42)
(3, 35)
(804, 765)
(652, 370)
(974, 309)
(1001, 639)
(645, 580)
(143, 1017)
(63, 641)
(232, 462)
(512, 957)
(52, 283)
(5, 312)
(267, 574)
(515, 489)
(954, 309)
(895, 566)
(69, 253)
(853, 32)
(190, 693)
(133, 435)
(484, 452)
(911, 972)
(462, 83)
(746, 148)
(295, 324)
(461, 156)
(201, 226)
(961, 944)
(480, 119)
(664, 732)
(22, 714)
(722, 673)
(93, 62)
(12, 476)
(591, 241)
(276, 629)
(732, 482)
(736, 481)
(976, 412)
(668, 861)
(1003, 327)
(344, 573)
(497, 566)
(294, 831)
(164, 646)
(89, 320)
(150, 527)
(503, 625)
(500, 1019)
(964, 149)
(648, 956)
(825, 716)
(718, 895)
(21, 527)
(327, 539)
(470, 383)
(87, 81)
(502, 160)
(999, 278)
(720, 891)
(310, 638)
(595, 93)
(692, 446)
(968, 39)
(942, 720)
(474, 385)
(183, 883)
(782, 804)
(229, 968)
(290, 720)
(169, 418)
(835, 984)
(573, 733)
(215, 667)
(529, 580)
(689, 346)
(850, 652)
(365, 515)
(181, 552)
(851, 926)
(278, 217)
(167, 31)
(987, 998)
(23, 628)
(530, 184)
(173, 675)
(819, 38)
(307, 567)
(828, 441)
(619, 722)
(40, 315)
(507, 865)
(739, 947)
(31, 1023)
(527, 894)
(719, 987)
(884, 155)
(902, 207)
(836, 258)
(733, 755)
(728, 813)
(5, 1019)
(1016, 827)
(831, 1001)
(920, 248)
(592, 423)
(597, 530)
(1011, 628)
(668, 77)
(784, 42)
(936, 937)
(132, 258)
(231, 122)
(202, 971)
(424, 524)
(736, 962)
(34, 599)
(512, 438)
(340, 813)
(344, 394)
(714, 233)
(825, 553)
(267, 691)
(29, 511)
(666, 581)
(680, 326)
(267, 457)
(884, 447)
(110, 806)
(512, 419)
(364, 736)
(198, 51)
(798, 475)
(414, 713)
(470, 732)
(981, 458)
(49, 352)
(82, 374)
(599, 907)
(774, 418)
(546, 384)
(705, 468)
(335, 915)
(175, 79)
(625, 954)
(909, 378)
(795, 115)
(662, 269)
(567, 75)
(485, 363)
(898, 268)
(218, 452)
(160, 68)
(792, 1023)
(23, 149)
(537, 300)
(278, 18)
(793, 471)
(397, 328)
(646, 585)
(765, 418)
(523, 643)
(1018, 127)
(362, 329)
(291, 684)
(670, 865)
(47, 55)
(755, 648)
(972, 411)
(1005, 671)
(198, 95)
(712, 755)
(969, 273)
(706, 171)
(384, 320)
(292, 845)
(995, 934)
(353, 320)
(473, 446)
(372, 941)
(124, 278)
(242, 999)
(880, 870)
(738, 357)
(11, 741)
(462, 604)
(595, 250)
(13, 980)
(29, 372)
(556, 846)
(473, 764)
(617, 654)
(576, 184)
(48, 987)
(590, 273)
(19, 980)
(249, 490)
(232, 880)
(77, 537)
(597, 344)
(403, 550)
(53, 441)
(491, 180)
(808, 100)
(367, 872)
(392, 669)
(133, 269)
(583, 827)
(674, 404)
(398, 530)
(513, 403)
(1010, 852)
(238, 912)
(383, 705)
(980, 558)
(90, 458)
(265, 370)
(193, 853)
(19, 744)
(568, 389)
(729, 176)
(70, 699)
(1013, 973)
(661, 1004)
(924, 393)
(24, 35)
(809, 401)
(556, 504)
(772, 624)
(856, 407)
(687, 784)
(796, 748)
(114, 568)
(467, 859)
(889, 615)
(829, 4)
(907, 126)
(787, 325)
(459, 398)
(74, 114)
(737, 414)
(102, 704)
(231, 771)
(885, 634)
(299, 774)
(39, 79)
(286, 750)
(540, 741)
(300, 790)
(604, 391)
(698, 715)
(332, 123)
(301, 21)
(270, 128)
(324, 757)
(775, 927)
(817, 17)
(365, 335)
(464, 57)
(184, 868)
(423, 286)
(899, 319)
(947, 423)
(635, 760)
(588, 761)
(147, 968)
(494, 440)
(436, 470)
(852, 5)
(334, 125)
(733, 76)
(861, 41)
(989, 616)
(145, 93)
(607, 765)
(141, 625)
(801, 674)
(73, 928)
(236, 84)
(235, 502)
(149, 572)
(979, 382)
(101, 983)
(677, 453)
(994, 105)
(282, 249)
(899, 827)
(619, 68)
(476, 313)
(1005, 475)
(966, 107)
(886, 824)
(714, 897)
(115, 845)
(591, 508)
(182, 269)
(581, 715)
(652, 691)
(698, 780)
(438, 236)
(699, 113)
(125, 613)
(619, 970)
(921, 522)
(773, 617)
(805, 324)
(574, 82)
(754, 526)
(390, 796)
(996, 22)
(499, 15)
(517, 822)
(1000, 898)
(942, 798)
(811, 602)
(492, 49)
(563, 746)
(157, 856)
(469, 134)
(850, 748)
(772, 54)
(1010, 395)
(659, 919)
(728, 5)
(648, 761)
(852, 201)
(161, 399)
(350, 617)
(291, 938)
(179, 337)
(458, 467)
(791, 98)
(839, 694)
(234, 318)
(565, 34)
(928, 894)
(992, 462)
(381, 1014)
(857, 733)
(56, 615)
(553, 396)
(343, 359)
(111, 494)
(998, 538)
(473, 465)
(294, 156)
(937, 579)
(581, 798)
(18, 112)
(136, 962)
(512, 781)
(309, 884)
(40, 402)
(857, 882)
(162, 562)
(160, 671)
(293, 949)
(478, 331)
(1008, 953)
(261, 96)
(135, 119)
(90, 779)
(40, 799)
(432, 219)
(245, 782)
(501, 493)
(97, 229)
(670, 356)
(266, 236)
(474, 640)
(298, 836)
(657, 493)
(781, 939)
(501, 687)
(210, 506)
(512, 472)
(250, 992)
(349, 573)
(670, 794)
(763, 252)
(180, 303)
(959, 578)
(295, 490)
(477, 561)
(979, 507)
(638, 593)
(579, 198)
(579, 634)
(335, 989)
(908, 421)
(367, 755)
(1014, 155)
(629, 986)
(385, 915)
(645, 380)
(731, 1014)
(624, 33)
(884, 410)
(464, 444)
(485, 147)
(877, 652)
(341, 718)
(680, 791)
(725, 837)
(74, 943)
(642, 582)
(871, 125)
(742, 122)
(329, 525)
(161, 870)
(5, 712)
(837, 35)
(924, 393)
(426, 287)
(323, 1008)
(755, 667)
(447, 128)
(588, 267)
(649, 846)
(995, 188)
(469, 753)
(323, 106)
(434, 401)
(218, 836)
(871, 439)
(780, 391)
(774, 832)
(367, 590)
(925, 841)
(405, 939)
(502, 487)
(970, 472)
(405, 550)
(145, 640)
(220, 932)
(35, 255)
(466, 263)
(406, 483)
(237, 420)
(759, 4)
(474, 205)
(131, 254)
(329, 34)
(870, 545)
(48, 341)
(270, 963)
(713, 688)
(387, 217)
(701, 828)
(491, 440)
(656, 28)
(69, 896)
(628, 207)
(663, 710)
(868, 731)
(828, 406)
(120, 389)
(163, 253)
(304, 373)
(766, 20)
(713, 267)
(431, 84)
(321, 465)
(175, 83)
(392, 802)
(335, 519)
(349, 123)
(611, 104)
(35, 824)
(845, 322)
(791, 290)
(860, 934)
(750, 10)
(593, 271)
(350, 967)
(995, 665)
(200, 995)
(322, 230)
(948, 976)
(667, 134)
(387, 78)
(23, 987)
(191, 120)
(651, 176)
(914, 340)
(718, 845)
(885, 568)
(90, 463)
(689, 573)
(313, 470)
(202, 128)
(946, 434)
(859, 96)
(637, 340)
(738, 417)
(617, 936)
(284, 383)
(921, 956)
(112, 29)
(547, 660)
(119, 685)
(852, 438)
(629, 596)
(683, 483)
(1007, 437)
(457, 831)
(361, 434)
(210, 947)
(247, 208)
(326, 265)
(269, 146)
(60, 632)
(810, 154)
(475, 595)
(169, 1007)
(950, 85)
(860, 587)
(464, 569)
(990, 80)
(541, 23)
(755, 960)
(635, 381)
(452, 412)
(621, 283)
(671, 515)
(147, 546)
(821, 448)
(675, 276)
(703, 475)
(864, 909)
(857, 516)
(829, 171)
(1011, 123)
(721, 748)
(234, 216)
(479, 277)
(728, 430)
(820, 334)
(796, 591)
(704, 347)
(804, 769)
(9, 143)
(294, 446)
(296, 85)
(360, 1014)
(578, 935)
(1001, 128)
(166, 941)
(464, 444)
(535, 270)
(99, 505)
(474, 211)
(852, 365)
(305, 939)
(778, 136)
(1009, 665)
(488, 657)
(815, 201)
(464, 454)
(238, 486)
(570, 757)
(637, 657)
(190, 983)
(758, 1008)
(313, 885)
(406, 682)
(966, 616)
(607, 957)
(681, 976)
(825, 397)
(203, 365)
(530, 100)
(77, 415)
(835, 78)
(979, 289)
(533, 208)
(592, 128)
(584, 18)
(759, 726)
(483, 506)
(888, 609)
(845, 640)
(284, 547)
(939, 87)
(507, 873)
(847, 110)
(169, 990)
(766, 778)
(597, 398)
(101, 1003)
(877, 991)
(711, 480)
(387, 762)
(270, 12)
(534, 562)
(279, 712)
(101, 666)
(940, 935)
(24, 992)
(683, 214)
(653, 744)
(684, 752)
(319, 343)
(369, 947)
(630, 354)
(493, 974)
(508, 918)
(429, 856)
(121, 326)
(827, 745)
(458, 646)
(209, 297)
(481, 218)
(948, 296)
(622, 285)
(725, 518)
(716, 744)
(135, 545)
(308, 41)
(608, 694)
(574, 475)
(341, 160)
(768, 337)
(395, 427)
(322, 488)
(1023, 582)
(149, 582)
(916, 450)
(919, 14)
(338, 726)
(785, 852)
(388, 508)
(971, 388)
(614, 722)
(130, 489)
(826, 799)
(549, 302)
(624, 583)
(660, 602)
(555, 528)
(204, 462)
(496, 364)
(322, 183)
(279, 895)
(398, 585)
(453, 781)
(311, 842)
(547, 1017)
(517, 852)
(742, 249)
(180, 636)
(288, 821)
(830, 881)
(684, 138)
(303, 166)
(1011, 50)
(350, 307)
(850, 664)
(221, 619)
(864, 72)
(969, 833)
(550, 398)
(975, 664)
(885, 233)
(0, 822)
(425, 1023)
(108, 76)
(958, 61)
(509, 688)
(864, 252)
(124, 591)
(423, 668)
(759, 733)
(728, 233)
(851, 584)
(520, 609)
(159, 863)
(926, 404)
(329, 470)
(62, 518)
(780, 179)
(737, 204)
(68, 393)
(107, 588)
(836, 78)
(856, 722)
(736, 885)
(604, 831)
(577, 300)
(956, 44)
(292, 164)
(115, 185)
(716, 899)
(873, 522)
(386, 697)
(835, 863)
(189, 47)
(448, 362)
(843, 726)
(992, 359)
(905, 726)
(210, 775)
(815, 765)
(724, 219)
(605, 778)
(464, 493)
(130, 603)
(762, 968)
(613, 830)
(996, 488)
(122, 484)
(872, 224)
(329, 11)
(891, 73)
(942, 75)
(1009, 573)
(62, 560)
(328, 299)
(784, 274)
(185, 50)
(923, 257)
(955, 887)
(301, 515)
(714, 195)
(48, 819)
(491, 673)
(715, 931)
(408, 168)
(339, 320)
(881, 864)
(282, 610)
(138, 941)
(264, 215)
(545, 571)
(746, 723)
(745, 235)
(303, 384)
(786, 536)
(385, 53)
(225, 988)
(19, 605)
(336, 379)
(207, 788)
(714, 869)
(851, 970)
(817, 526)
(384, 431)
(765, 324)
(873, 982)
(485, 820)
(196, 781)
(195, 653)
(377, 987)
(358, 485)
(236, 241)
(237, 1010)
(819, 12)
(351, 531)
(235, 938)
(62, 171)
(611, 350)
(882, 356)
(920, 467)
(355, 18)
(287, 24)
(758, 114)
(63, 712)
(282, 661)
(566, 530)
(311, 602)
(1018, 259)
(1022, 198)
(931, 381)
(407, 727)
(507, 856)
(773, 217)
(276, 440)
(946, 497)
(147, 808)
(585, 597)
(566, 1000)
(779, 408)
(257, 104)
(123, 79)
(286, 820)
(926, 744)
(270, 528)
(648, 499)
(509, 239)
(966, 0)
(879, 457)
(54, 360)
(442, 969)
(731, 836)
(182, 527)
(431, 675)
(44, 628)
(773, 420)
(526, 209)
(48, 811)
(1018, 623)
(1012, 433)
(761, 670)
(21, 986)
(367, 917)
(375, 940)
(692, 296)
(862, 261)
(808, 616)
(441, 867)
(134, 385)
(633, 117)
(196, 281)
(693, 338)
(234, 338)
(72, 78)
(214, 335)
(524, 392)
(384, 602)
(152, 705)
(594, 72)
(277, 68)
(773, 780)
(990, 381)
(51, 717)
(556, 410)
(10, 406)
(845, 958)
(1012, 829)
(503, 65)
(814, 535)
(674, 635)
(213, 34)
(129, 20)
(795, 336)
(219, 832)
(242, 926)
(912, 371)
(197, 983)
(179, 471)
(675, 787)
(64, 413)
(687, 879)
(977, 753)
(629, 921)
(158, 982)
(348, 299)
(787, 163)
(747, 965)
(967, 294)
(425, 412)
(976, 570)
(144, 513)
(432, 821)
(643, 1001)
(724, 535)
(564, 294)
(667, 100)
(598, 970)
(85, 778)
(867, 715)
(578, 993)
(600, 126)
(503, 391)
(904, 239)
(730, 245)
(179, 607)
(238, 518)
(648, 315)
(395, 213)
(118, 434)
(93, 477)
(789, 731)
(408, 692)
(350, 248)
(914, 797)
(851, 686)
(163, 51)
(1007, 541)
(363, 661)
(208, 492)
(602, 805)
(803, 854)
(63, 262)
(806, 202)
(109, 684)
(119, 917)
(281, 884)
(621, 711)
(427, 89)
(86, 984)
(503, 439)
(773, 820)
(860, 109)
(843, 552)
(466, 455)
(417, 281)
(300, 143)
(501, 829)
(80, 386)
(759, 911)
(614, 64)
(393, 763)
(395, 941)
(744, 75)
(449, 68)
(522, 1008)
(769, 758)
(699, 701)
(387, 365)
(33, 554)
(54, 550)
(163, 663)
(544, 920)
(1001, 924)
(75, 297)
(658, 966)
(391, 508)
(750, 883)
(572, 328)
(130, 585)
(452, 936)
(21, 789)
(401, 456)
(841, 728)
(687, 329)
(121, 85)
(442, 990)
(92, 860)
(899, 542)
(953, 448)
(495, 976)
(870, 75)
(463, 423)
(757, 267)
(706, 156)
(677, 941)
(33, 99)
(259, 84)
(958, 456)
(103, 718)
(814, 457)
(853, 451)
(49, 576)
(712, 37)
(659, 616)
(523, 960)
(761, 757)
(785, 663)
(988, 685)
(884, 690)
(339, 12)
(911, 919)
(467, 64)
(203, 630)
(845, 747)
(244, 445)
(468, 98)
(186, 407)
(659, 214)
(785, 514)
(735, 381)
(898, 525)
(532, 292)
(312, 489)
(741, 37)
(633, 292)
(689, 189)
(999, 662)
(921, 565)
(648, 17)
(558, 328)
(264, 926)
(462, 47)
(592, 84)
(788, 57)
(760, 337)
(954, 908)
(834, 435)
(649, 126)
(219, 205)
(531, 593)
(804, 624)
(50, 329)
(379, 859)
(443, 422)
(1016, 713)
(664, 62)
(186, 710)
(835, 778)
(359, 276)
(819, 280)
(797, 447)
(909, 671)
(90, 805)
(990, 388)
(577, 846)
(371, 905)
(908, 532)
(1023, 752)
(105, 1012)
(827, 552)
(989, 204)
(108, 22)
(402, 562)
(593, 992)
(685, 555)
(167, 283)
(380, 620)
(956, 866)
(721, 835)
(511, 60)
(665, 290)
(569, 252)
(273, 573)
(839, 411)
(411, 912)
(805, 652)
(808, 16)
(447, 972)
(423, 60)
(910, 91)
(41, 945)
(988, 537)
(70, 788)
(738, 898)
(893, 221)
(876, 971)
(428, 346)
(1020, 414)
(294, 660)
(919, 380)
(655, 262)
(214, 746)
(336, 1019)
(1008, 292)
(922, 789)
(907, 47)
(987, 857)
(563, 177)
(402, 881)
(109, 224)
(41, 275)
(556, 149)
(551, 563)
(7, 105)
(442, 177)
(162, 523)
(318, 218)
(329, 518)
(534, 857)
(861, 846)
(138, 905)
(446, 794)
(176, 934)
(661, 869)
(501, 558)
(405, 565)
(298, 674)
(254, 649)
(666, 95)
(172, 968)
(513, 900)
(136, 928)
(850, 124)
(989, 883)
(802, 444)
(467, 832)
(603, 629)
(289, 230)
(499, 129)
(382, 14)
(199, 510)
(598, 839)
(247, 478)
(106, 688)
(278, 323)
(333, 97)
(947, 607)
(1020, 21)
(380, 984)
(430, 287)
(1007, 329)
(79, 792)
(760, 949)
(503, 974)
(659, 245)
(299, 598)
(451, 686)
(532, 621)
(914, 514)
(671, 341)
(421, 222)
(857, 954)
(520, 396)
(913, 664)
(353, 743)
(112, 644)
(774, 34)
(158, 646)
(990, 298)
(136, 53)
(685, 728)
(704, 173)
(696, 841)
(191, 676)
(861, 238)
(486, 615)
(692, 315)
(995, 560)
(431, 124)
