(371, 476)
(275, 954)
(540, 731)
(286, 430)
(360, 169)
(801, 242)
(893, 766)
(960, 326)
(500, 175)
(231, 221)
(698, 147)
(565, 697)
(846, 453)
(480, 69)
(650, 859)
(570, 571)
(795, 87)
(471, 276)
(661, 649)
(567, 191)
(379, 731)
(267, 988)
(813, 842)
(411, 998)
(609, 813)
(171, 125)
(192, 646)
(372, 348)
(137, 688)
(715, 343)
(62, 511)
(552, 90)
(388, 346)
(1017, 592)
(178, 436)
(28, 672)
(111, 798)
(609, 953)
(943, 319)
(549, 550)
(335, 78)
(310, 479)
(396, 395)
(319, 666)
(10, 1015)
(51, 288)
(398, 378)
(426, 438)
(567, 212)
(763, 48)
(920, 407)
(448, 377)
(920, 906)
(1015, 351)
(860, 675)
(629, 729)
(504, 317)
(84, 570)
(790, 479)
(920, 698)
(799, 750)
(123, 797)
(153, 987)
(513, 995)
(674, 95)
(366, 428)
(692, 567)
(971, 206)
(910, 856)
(62, 490)
(98, 745)
(801, 376)
(549, 35)
(370, 991)
(761, 378)
(271, 137)
(287, 732)
(504, 569)
(80, 515)
(689, 735)
(961, 353)
(146, 843)
(292, 944)
(767, 580)
(783, 339)
(285, 170)
(262, 488)
(956, 163)
(247, 182)
(19, 956)
(926, 260)
(312, 275)
(857, 705)
(339, 41)
(140, 974)
(995, 165)
(420, 114)
(148, 760)
(983, 49)
(281, 812)
(603, 43)
(355, 663)
(267, 835)
(565, 458)
(638, 982)
(138, 125)
(350, 181)
(809, 695)
(856, 854)
(219, 334)
(121, 882)
(277, 894)
(316, 942)
(459, 152)
(160, 495)
(383, 857)
(434, 580)
(884, 482)
(175, 369)
(714, 1)
(304, 262)
(85, 993)
(717, 485)
(751, 755)
(1007, 989)
(367, 297)
(902, 603)
(986, 787)
(833, 561)
(772, 14)
(543, 647)
(145, 285)
(699, 5)
(789, 383)
(296, 851)
(828, 573)
(692, 751)
(534, 520)
(449, 752)
(594, 964)
(920, 327)
(911, 625)
(937, 402)
(687, 594)
(691, 973)
(907, 751)
(481, 908)
(282, 384)
(639, 903)
(690, 23)
(545, 15)
(729, 212)
(58, 93)
(59, 746)
(275, 538)
(325, 128)
(747, 810)
(843, 414)
(576, 631)
(60, 54)
(772, 212)
(290, 475)
(381, 56)
(303, 364)
(172, 251)
(974, 199)
(46, 182)
(958, 62)
(315, 662)
(26, 257)
(373, 806)
(697, 208)
(484, 650)
(132, 146)
(692, 601)
(415, 425)
(85, 487)
(86, 952)
(627, 587)
(154, 1019)
(767, 505)
(221, 321)
(242, 676)
(137, 1)
(895, 941)
(117, 127)
(869, 357)
(339, 603)
(117, 669)
(517, 635)
(745, 762)
(810, 269)
(305, 64)
(481, 1010)
(869, 791)
(619, 412)
(413, 555)
(923, 146)
(202, 322)
(45, 210)
(1010, 560)
(183, 985)
(960, 333)
(415, 739)
(718, 117)
(230, 81)
(661, 278)
(236, 1001)
(364, 356)
(765, 176)
(18, 713)
(106, 61)
(494, 235)
(481, 815)
(888, 433)
(1009, 375)
(230, 356)
(791, 969)
(241, 877)
(423, 613)
(534, 597)
(530, 317)
(155, 967)
(386, 829)
(568, 863)
(237, 693)
(429, 493)
(455, 638)
(612, 410)
(379, 679)
(600, 982)
(913, 720)
(420, 1018)
(669, 104)
(287, 953)
(1000, 472)
(261, 829)
(973, 699)
(720, 325)
(46, 538)
(436, 764)
(302, 502)
(165, 124)
(973, 233)
(895, 891)
(538, 848)
(225, 344)
(475, 173)
(289, 839)
(405, 685)
(361, 291)
(804, 490)
(243, 138)
(423, 953)
(846, 638)
(404, 672)
(419, 579)
(221, 546)
(559, 899)
(930, 378)
(574, 61)
(974, 884)
(189, 633)
(644, 852)
(898, 939)
(875, 919)
(174, 319)
(205, 211)
(593, 637)
(870, 990)
(643, 771)
(85, 685)
(326, 141)
(282, 401)
(280, 64)
(722, 111)
(764, 703)
(462, 668)
(731, 612)
(964, 297)
(532, 50)
(494, 924)
(165, 58)
(676, 732)
(964, 917)
(536, 106)
(258, 937)
(720, 566)
(917, 678)
(523, 893)
(366, 305)
(948, 82)
(142, 46)
(603, 384)
(696, 866)
(379, 336)
(435, 1007)
(273, 365)
(203, 570)
(783, 928)
(805, 842)
(696, 592)
(150, 202)
(528, 415)
(919, 674)
(409, 916)
(424, 999)
(594, 480)
(682, 897)
(347, 611)
(343, 165)
(364, 725)
(589, 598)
(535, 495)
(457, 1020)
(360, 364)
(689, 253)
(187, 970)
(76, 399)
(345, 861)
(274, 534)
(553, 442)
(816, 542)
(308, 402)
(308, 567)
(178, 39)
(380, 696)
(499, 348)
(516, 905)
(94, 954)
(568, 404)
(110, 788)
(189, 178)
(399, 632)
(598, 277)
(670, 116)
(204, 196)
(447, 273)
(585, 606)
(54, 418)
(457, 413)
(872, 443)
(350, 3)
(453, 890)
(551, 264)
(533, 956)
(987, 431)
(123, 55)
(422, 940)
(762, 534)
(249, 18)
(439, 939)
(37, 495)
(475, 46)
(752, 612)
(534, 641)
(436, 725)
(713, 931)
(240, 823)
(241, 786)
(350, 130)
(324, 428)
(914, 260)
(11, 691)
(549, 167)
(765, 777)
(245, 381)
(432, 1003)
(464, 132)
(941, 698)
(457, 828)
(895, 137)
(483, 11)
(812, 912)
(543, 778)
(951, 175)
(691, 903)
(611, 1007)
(13, 184)
(803, 180)
(266, 902)
(534, 454)
(68, 230)
(744, 698)
(317, 383)
(868, 532)
(399, 994)
(347, 633)
(596, 784)
(739, 973)
(4, 723)
(584, 139)
(898, 958)
(571, 821)
(882, 866)
(508, 278)
(445, 645)
(179, 992)
(902, 140)
(835, 83)
(782, 582)
(720, 977)
(82, 714)
(593, 321)
(326, 236)
(899, 288)
(954, 587)
(861, 398)
(635, 399)
(478, 139)
(252, 48)
(214, 311)
(47, 399)
(858, 802)
(650, 606)
(868, 599)
(13, 120)
(650, 973)
(413, 651)
(833, 845)
(724, 180)
(667, 62)
(801, 806)
(111, 902)
(518, 329)
(498, 441)
(481, 571)
(635, 433)
(625, 928)
(547, 2)
(649, 543)
(587, 587)
(512, 204)
(597, 481)
(298, 819)
(755, 187)
(906, 341)
(859, 190)
(322, 875)
(928, 885)
(55, 792)
(431, 982)
(891, 822)
(907, 386)
(786, 426)
(593, 639)
(312, 502)
(53, 405)
(810, 324)
(636, 271)
(553, 925)
(103, 430)
(729, 676)
(10, 820)
(319, 425)
(510, 495)
(996, 645)
(617, 339)
(484, 32)
(745, 875)
(898, 493)
(571, 953)
(982, 247)
(499, 145)
(399, 836)
(399, 246)
(801, 373)
(687, 475)
(264, 253)
(943, 961)
(414, 321)
(396, 913)
(825, 38)
(901, 841)
(884, 978)
(956, 265)
(200, 137)
(940, 113)
(860, 750)
(398, 1015)
(211, 133)
(881, 97)
(816, 678)
(866, 1021)
(221, 201)
(564, 992)
(378, 103)
(357, 121)
(971, 970)
(875, 433)
(774, 4)
(222, 952)
(34, 864)
(999, 540)
(252, 739)
(175, 643)
(542, 950)
(715, 427)
(489, 413)
(383, 94)
(638, 976)
(144, 804)
(111, 665)
(370, 519)
(268, 1006)
(793, 679)
(505, 714)
(534, 148)
(410, 421)
(863, 831)
(837, 326)
(255, 77)
(930, 213)
(995, 687)
(427, 229)
(727, 432)
(89, 239)
(851, 502)
(762, 376)
(729, 75)
(264, 97)
(300, 568)
(7, 320)
(128, 739)
(93, 229)
(803, 370)
(970, 1008)
(781, 942)
(447, 515)
(828, 1013)
(152, 694)
(565, 840)
(645, 735)
(794, 88)
(769, 893)
(874, 982)
(176, 1014)
(528, 127)
(410, 317)
(210, 378)
(41, 376)
(132, 319)
(492, 828)
(418, 817)
(33, 758)
(9, 255)
(754, 561)
(460, 237)
(43, 337)
(475, 677)
(806, 171)
(148, 739)
(148, 490)
(311, 119)
(695, 917)
(440, 167)
(321, 879)
(638, 285)
(720, 46)
(1, 150)
(520, 538)
(1003, 832)
(48, 374)
(804, 800)
(715, 29)
(750, 888)
(210, 246)
(79, 238)
(997, 144)
(358, 219)
(755, 670)
(489, 258)
(9, 465)
(81, 854)
(100, 455)
(763, 527)
(125, 850)
(191, 646)
(116, 931)
(172, 838)
(953, 417)
(388, 205)
(239, 957)
(112, 303)
(330, 116)
(327, 909)
(571, 45)
(780, 423)
(636, 916)
(135, 489)
(841, 898)
(76, 488)
(741, 598)
(408, 512)
(415, 265)
(801, 394)
(545, 432)
(625, 479)
(706, 164)
(172, 89)
(778, 958)
(694, 117)
(514, 194)
(274, 827)
(429, 674)
(570, 294)
(727, 664)
(0, 146)
(93, 366)
(124, 214)
(835, 16)
(816, 693)
(578, 963)
(563, 44)
(794, 533)
(49, 458)
(702, 928)
(260, 479)
(457, 474)
(756, 769)
(724, 767)
(913, 349)
(974, 202)
(111, 874)
(237, 528)
(870, 315)
(331, 782)
(659, 238)
(905, 741)
(131, 149)
(573, 173)
(848, 890)
(953, 503)
(725, 681)
(274, 455)
(475, 272)
(431, 554)
(787, 82)
(796, 11)
(281, 948)
(369, 424)
(613, 274)
(690, 579)
(91, 397)
(468, 752)
(338, 991)
(972, 559)
(128, 602)
(597, 945)
(232, 92)
(274, 118)
(917, 622)
(189, 440)
(1000, 339)
(950, 259)
(282, 597)
(403, 282)
(325, 289)
(472, 841)
(760, 243)
(303, 596)
(315, 787)
(913, 318)
(475, 893)
(804, 917)
(8, 1014)
(301, 575)
(342, 867)
(644, 662)
(756, 151)
(267, 93)
(175, 492)
(224, 420)
(215, 543)
(416, 76)
(563, 811)
(436, 667)
(888, 479)
(726, 378)
(775, 475)
(81, 15)
(40, 733)
(471, 304)
(773, 214)
(115, 134)
(860, 702)
(548, 748)
(456, 1020)
(998, 239)
(87, 1018)
(359, 282)
(965, 268)
(654, 968)
(341, 259)
(98, 1016)
(253, 746)
(507, 598)
(214, 386)
(951, 434)
(85, 850)
(618, 373)
(752, 715)
(769, 67)
(645, 415)
(218, 36)
(3, 686)
(919, 554)
(856, 852)
(427, 721)
(651, 588)
(195, 567)
(68, 808)
(368, 449)
(828, 300)
(378, 718)
(220, 257)
(945, 22)
(680, 53)
(122, 755)
(324, 678)
(866, 758)
(740, 183)
(924, 814)
(150, 545)
(859, 616)
(574, 889)
(142, 275)
(731, 982)
(935, 667)
(389, 853)
(895, 452)
(314, 85)
(800, 168)
(26, 1016)
(491, 273)
(693, 727)
(348, 71)
(852, 169)
(717, 245)
(936, 429)
(25, 42)
(498, 269)
(1018, 207)
(849, 642)
(13, 133)
(566, 929)
(542, 37)
(468, 555)
(816, 806)
(939, 276)
(986, 478)
(14, 205)
(426, 21)
(703, 569)
(471, 503)
(530, 129)
(40, 692)
(165, 30)
(310, 415)
(782, 663)
(29, 813)
(867, 342)
(452, 226)
(612, 957)
(640, 351)
(787, 444)
(822, 781)
(781, 701)
(626, 512)
(102, 449)
(921, 776)
(226, 31)
(118, 212)
(567, 19)
(128, 592)
(950, 529)
(133, 543)
(869, 797)
(453, 166)
(628, 706)
(479, 255)
(2, 707)
(494, 191)
(966, 648)
(971, 543)
(133, 521)
(68, 222)
(245, 946)
(226, 50)
(705, 958)
(769, 595)
(443, 239)
(823, 444)
(90, 870)
(880, 197)
(185, 913)
(687, 356)
(235, 147)
(374, 353)
(711, 469)
(390, 468)
(436, 952)
(993, 272)
(610, 63)
(21, 520)
(1014, 504)
(435, 935)
(586, 332)
(556, 732)
(292, 616)
(697, 228)
(577, 913)
(578, 493)
(255, 49)
(479, 591)
(824, 137)
(669, 847)
(440, 307)
(454, 310)
(529, 843)
(993, 229)
(521, 487)
(367, 69)
(278, 335)
(426, 276)
(433, 98)
(195, 956)
(856, 755)
(684, 720)
(325, 500)
(488, 474)
(653, 632)
(916, 668)
(512, 770)
(429, 190)
(122, 171)
(1011, 21)
(638, 664)
(576, 76)
(254, 350)
(70, 840)
(753, 969)
(442, 864)
(349, 588)
(713, 455)
(319, 312)
(254, 187)
(730, 459)
(461, 232)
(73, 214)
(863, 13)
(729, 807)
(184, 480)
(351, 1001)
(178, 392)
(112, 408)
(653, 776)
(447, 691)
(455, 175)
(135, 987)
(1, 134)
(524, 172)
(398, 1008)
(91, 33)
(415, 23)
(155, 913)
(946, 9)
(679, 778)
(339, 120)
(962, 934)
(720, 0)
(62, 505)
(1019, 911)
(500, 186)
(329, 767)
(211, 440)
(1004, 222)
(265, 921)
(842, 732)
(501, 307)
(556, 511)
(313, 542)
(405, 913)
(371, 648)
(304, 529)
(404, 1013)
(816, 445)
(74, 377)
(624, 628)
(339, 612)
(1014, 341)
(351, 988)
(478, 432)
(262, 1)
(994, 419)
(194, 450)
(154, 922)
(445, 200)
(7, 525)
(348, 101)
(440, 540)
(810, 104)
(165, 16)
(397, 405)
(414, 98)
(326, 370)
(1018, 492)
(988, 307)
(769, 778)
(782, 5)
(29, 89)
(500, 704)
(710, 698)
(1015, 47)
(163, 651)
(246, 580)
(383, 201)
(625, 571)
(508, 400)
(154, 162)
(110, 212)
(985, 709)
(623, 108)
(714, 203)
(107, 77)
(942, 914)
(351, 985)
(202, 1015)
(821, 260)
(999, 215)
(949, 339)
(540, 759)
(322, 1022)
(709, 630)
(408, 768)
(732, 260)
(549, 110)
(719, 774)
(435, 26)
(111, 565)
(236, 56)
(383, 329)
(478, 422)
(858, 159)
(567, 404)
(117, 792)
(399, 967)
(354, 354)
(178, 927)
(475, 147)
(326, 753)
(910, 170)
(210, 65)
(885, 972)
(256, 673)
(798, 243)
(858, 274)
(523, 494)
(734, 626)
(199, 44)
(754, 849)
(982, 618)
(865, 858)
(567, 656)
(27, 753)
(100, 1017)
(91, 772)
(309, 922)
(225, 858)
(440, 401)
(470, 416)
(36, 672)
(165, 300)
(39, 248)
(932, 991)
(152, 961)
(128, 730)
(213, 394)
(899, 615)
(668, 259)
(379, 42)
(292, 630)
(628, 762)
(1004, 536)
(869, 606)
(336, 164)
(112, 679)
(841, 511)
(6, 392)
(621, 736)
(145, 532)
(159, 859)
(119, 41)
(743, 430)
(332, 262)
(678, 340)
(728, 783)
(630, 430)
(389, 605)
(379, 877)
(611, 862)
(663, 993)
(12, 830)
(393, 272)
(1005, 71)
(769, 526)
(494, 826)
(434, 988)
(240, 217)
(94, 742)
(107, 568)
(187, 775)
(838, 680)
(669, 620)
(255, 550)
(939, 373)
(758, 1014)
(231, 440)
(33, 1005)
(350, 36)
(712, 325)
(12, 409)
(172, 788)
(551, 374)
(135, 482)
(137, 41)
(7, 554)
(232, 837)
(955, 895)
(24, 155)
(833, 618)
(814, 892)
(97, 923)
(928, 116)
(306, 728)
(817, 916)
(657, 680)
(614, 416)
(744, 530)
(903, 801)
(754, 100)
(1, 473)
(692, 785)
(651, 934)
(228, 961)
(851, 897)
(196, 481)
(730, 324)
(412, 843)
(500, 695)
(69, 824)
(792, 841)
(797, 63)
(1016, 894)
(207, 492)
(64, 390)
(410, 344)
(797, 660)
(232, 362)
(908, 747)
(914, 343)
(82, 951)
(724, 253)
(81, 959)
(919, 657)
(334, 916)
(515, 198)
(79, 103)
(6, 983)
(757, 651)
(453, 970)
(727, 223)
(3, 289)
(279, 930)
(878, 328)
(614, 421)
(52, 287)
(999, 748)
(351, 156)
(707, 405)
(745, 897)
(615, 229)
(107, 420)
(487, 764)
(526, 900)
(800, 660)
(51, 871)
(673, 633)
(700, 885)
(106, 703)
(508, 438)
(839, 148)
(514, 427)
(686, 176)
(393, 905)
(715, 317)
(209, 690)
(444, 247)
(676, 197)
(398, 497)
(273, 555)
(573, 951)
(834, 314)
(9, 1018)
(77, 577)
(238, 557)
(182, 210)
(554, 870)
(355, 828)
(645, 680)
(693, 363)
(311, 578)
(454, 757)
(254, 151)
(517, 828)
(669, 457)
(22, 954)
(129, 234)
(315, 741)
(587, 271)
(97, 788)
(700, 247)
(159, 319)
(304, 505)
(352, 70)
(240, 47)
(225, 740)
(768, 361)
(791, 687)
(214, 656)
(548, 474)
(388, 646)
(548, 542)
(714, 600)
(72, 526)
(609, 120)
(288, 474)
(947, 45)
(221, 730)
(894, 788)
(613, 834)
(348, 898)
(288, 279)
(81, 795)
(421, 828)
(955, 832)
(711, 37)
(588, 249)
(332, 752)
(683, 696)
(799, 680)
(490, 374)
(206, 301)
(886, 714)
(604, 979)
(664, 5)
(163, 822)
(452, 67)
(690, 965)
(216, 129)
(132, 108)
(362, 27)
(416, 76)
(763, 861)
(228, 409)
(776, 557)
(932, 642)
(127, 407)
(900, 867)
(949, 248)
(448, 511)
(677, 0)
(731, 696)
(486, 112)
(802, 103)
(347, 700)
(734, 49)
(810, 441)
(241, 77)
(1002, 714)
(115, 39)
(850, 504)
(179, 921)
(703, 235)
(518, 175)
(221, 408)
(64, 743)
(111, 371)
(777, 867)
(943, 214)
(347, 208)
(357, 568)
(564, 671)
(149, 715)
(872, 216)
(591, 29)
(211, 597)
(645, 869)
(116, 955)
(697, 661)
(719, 213)
(363, 105)
(677, 255)
(169, 820)
(185, 702)
(512, 304)
(851, 249)
(754, 474)
(109, 973)
(484, 257)
(1001, 705)
(491, 451)
(641, 296)
(95, 116)
(667, 91)
(471, 602)
(622, 946)
(266, 406)
(598, 750)
(915, 1004)
(583, 221)
(830, 79)
(760, 356)
(639, 735)
(940, 204)
(294, 489)
(361, 10)
(683, 458)
(267, 231)
(431, 229)
(446, 938)
(955, 812)
(185, 870)
(996, 968)
(782, 673)
(941, 147)
(362, 830)
(802, 887)
(967, 879)
(985, 278)
(43, 631)
(741, 857)
(895, 497)
(916, 558)
(372, 850)
(552, 298)
(663, 48)
(540, 506)
(402, 182)
(522, 188)
(920, 170)
(520, 31)
(88, 568)
(953, 587)
(456, 836)
(383, 192)
(256, 843)
(385, 813)
(594, 30)
(1008, 423)
(133, 54)
(133, 318)
(383, 864)
(849, 110)
(873, 70)
(890, 550)
(922, 588)
(154, 1008)
(385, 456)
(890, 829)
(77, 201)
(944, 515)
(340, 886)
(564, 566)
(823, 207)
(464, 218)
(198, 916)
(840, 538)
(44, 556)
(760, 3)
(101, 311)
(5, 230)
(488, 739)
(186, 92)
(838, 416)
(673, 710)
(710, 1009)
(162, 153)
(264, 327)
(544, 708)
(120, 695)
(140, 1013)
(4, 356)
(527, 621)
(920, 935)
(677, 486)
(439, 175)
(642, 410)
(863, 562)
(92, 631)
(249, 1015)
(81, 278)
(355, 797)
(415, 440)
(156, 442)
(814, 137)
(424, 465)
(267, 487)
(99, 521)
(16, 997)
(149, 987)
(844, 243)
(479, 687)
(20, 768)
(944, 629)
(160, 719)
(636, 585)
(737, 963)
(785, 456)
(79, 83)
(41, 888)
(187, 620)
(745, 44)
(1004, 420)
(500, 61)
(224, 50)
(892, 112)
(771, 982)
(713, 616)
(94, 19)
(584, 875)
(290, 210)
(940, 645)
(417, 591)
(963, 109)
(782, 156)
(16, 616)
(439, 948)
(818, 868)
(552, 111)
(609, 397)
(38, 622)
(872, 978)
(63, 2)
(37, 701)
(966, 730)
(320, 325)
(452, 806)
(408, 414)
(402, 970)
(532, 329)
(778, 786)
(528, 336)
(45, 934)
(352, 452)
(524, 742)
(92, 345)
(522, 219)
(155, 563)
(5, 463)
(273, 841)
(558, 913)
(760, 949)
(774, 749)
(190, 383)
(245, 781)
(911, 457)
(107, 991)
(690, 636)
(365, 19)
(201, 335)
(953, 119)
(401, 488)
(55, 255)
(900, 387)
(776, 514)
(324, 502)
(561, 375)
(883, 183)
(548, 969)
(1023, 734)
(406, 535)
(253, 565)
(363, 232)
(42, 402)
(667, 671)
(467, 812)
(255, 31)
(867, 181)
(450, 452)
(556, 495)
(109, 410)
(975, 681)
(881, 49)
(250, 271)
(870, 218)
(973, 931)
(309, 411)
(450, 32)
(220, 337)
(228, 182)
(303, 251)
(900, 974)
(698, 916)
(217, 639)
(896, 746)
(215, 365)
(355, 4)
(220, 48)
(557, 305)
(433, 427)
(62, 602)
(164, 120)
(737, 65)
(866, 196)
(679, 568)
(838, 111)
(581, 996)
(91, 315)
(530, 269)
(332, 369)
(295, 781)
(714, 349)
(56, 523)
(473, 991)
(275, 628)
(5, 515)
(69, 229)
(104, 325)
(168, 57)
(737, 72)
(93, 505)
(75, 131)
(73, 516)
(484, 797)
(34, 90)
(869, 264)
(430, 448)
(120, 257)
(518, 631)
(977, 545)
(888, 865)
(248, 166)
(584, 68)
(962, 213)
(64, 355)
(96, 872)
(831, 637)
(408, 520)
(503, 13)
(589, 620)
(896, 252)
(824, 192)
(814, 608)
(525, 653)
(905, 211)
(369, 484)
(420, 220)
(769, 475)
(106, 789)
(130, 283)
(117, 962)
(999, 685)
(398, 230)
(114, 238)
(909, 984)
(74, 91)
(351, 589)
(423, 324)
(782, 74)
(841, 722)
(335, 605)
(371, 881)
(551, 981)
(159, 661)
(11, 773)
(868, 575)
(581, 408)
(700, 925)
(601, 19)
(488, 532)
(894, 462)
(563, 204)
(64, 915)
(122, 129)
(561, 784)
(1023, 744)
(18, 397)
(957, 426)
(70, 827)
(514, 611)
(482, 121)
(168, 55)
(493, 234)
(205, 813)
(136, 576)
(501, 698)
(308, 496)
(703, 520)
(734, 166)
(481, 181)
(950, 69)
(422, 990)
(868, 1002)
(241, 294)
(995, 900)
(352, 744)
(699, 739)
(324, 619)
(203, 499)
(185, 806)
(437, 478)
(428, 948)
(52, 762)
(974, 811)
(970, 829)
(859, 964)
(142, 146)
(407, 397)
(748, 804)
(825, 983)
(941, 455)
(346, 251)
(939, 465)
(104, 128)
(569, 730)
(9, 843)
(850, 813)
(653, 674)
(832, 486)
(766, 896)
(125, 526)
(768, 865)
(224, 649)
(789, 831)
(284, 33)
(772, 929)
(335, 184)
(576, 195)
(168, 369)
(608, 747)
(242, 817)
(858, 895)
(407, 916)
(389, 532)
(723, 519)
(88, 317)
(300, 980)
(689, 334)
(516, 912)
(706, 144)
(102, 421)
(248, 518)
(225, 204)
(335, 784)
(603, 68)
(982, 290)
(935, 481)
(334, 599)
(19, 981)
(786, 874)
(78, 399)
(459, 596)
(751, 800)
(969, 639)
(506, 80)
(929, 959)
(413, 836)
(986, 840)
(197, 1013)
(766, 181)
(360, 612)
(260, 803)
(956, 399)
(939, 948)
(46, 309)
(43, 909)
(221, 914)
(324, 506)
(224, 691)
(991, 90)
(881, 127)
(233, 746)
(258, 652)
(985, 959)
(673, 36)
(65, 984)
(59, 789)
(1009, 184)
(296, 249)
(23, 356)
(157, 943)
(964, 788)
(209, 128)
(583, 495)
(531, 962)
(1001, 186)
(355, 911)
(434, 20)
(662, 624)
(913, 464)
(273, 855)
(470, 177)
(84, 934)
(392, 427)
(76, 113)
(911, 660)
(438, 507)
(873, 608)
(488, 991)
(339, 260)
(730, 525)
(219, 365)
(622, 45)
(546, 586)
(651, 677)
(176, 54)
(627, 270)
(867, 441)
(284, 29)
(715, 11)
(291, 911)
(896, 987)
(315, 554)
(325, 926)
(919, 298)
(200, 749)
(0, 513)
(781, 361)
(121, 201)
(154, 985)
(873, 751)
(584, 83)
(54, 455)
(110, 115)
(349, 456)
(239, 350)
(16, 866)
(681, 435)
(877, 898)
(87, 24)
(459, 384)
(920, 656)
(22, 875)
(111, 22)
(368, 973)
(769, 611)
(465, 603)
(740, 691)
(407, 917)
(979, 33)
(732, 358)
(209, 782)
(648, 180)
(670, 159)
(315, 13)
(705, 576)
(350, 833)
(21, 215)
(141, 834)
(409, 335)
(752, 451)
(101, 336)
(37, 731)
(307, 958)
(104, 463)
(9, 581)
(296, 328)
(161, 896)
(679, 568)
(862, 402)
(80, 639)
(417, 1013)
(415, 411)
(908, 258)
(397, 43)
(900, 471)
(247, 849)
(732, 289)
(100, 959)
(873, 261)
(628, 851)
(1006, 90)
(929, 561)
(730, 71)
(337, 0)
(629, 551)
(714, 281)
(33, 705)
(244, 166)
(51, 147)
(196, 713)
(72, 505)
(474, 160)
(264, 516)
(113, 4)
(420, 931)
(238, 213)
(768, 342)
(752, 211)
(900, 1023)
(341, 724)
(42, 359)
(123, 344)
(411, 541)
(122, 78)
(166, 291)
(813, 767)
(471, 45)
(922, 72)
(143, 403)
(866, 457)
(926, 752)
(450, 360)
(768, 901)
(280, 856)
(858, 860)
(398, 516)
(285, 636)
(7, 263)
(430, 280)
(889, 819)
(26, 505)
(138, 5)
(527, 450)
(435, 187)
(509, 996)
(944, 309)
(1000, 850)
(992, 13)
(45, 778)
(813, 704)
(663, 130)
(950, 1014)
(549, 337)
(847, 718)
(150, 470)
(832, 347)
(472, 881)
(38, 668)
(858, 622)
(980, 61)
(452, 974)
(351, 358)
(214, 715)
(515, 598)
(451, 231)
(65, 437)
(580, 746)
(896, 287)
(870, 763)
(872, 137)
(527, 441)
(330, 658)
(817, 454)
(90, 16)
(415, 833)
(855, 945)
(165, 355)
(506, 458)
(979, 193)
(792, 400)
(1001, 295)
(836, 537)
(972, 999)
(568, 719)
(199, 118)
(511, 626)
(584, 664)
(237, 757)
(778, 588)
(55, 592)
(90, 470)
(480, 896)
(541, 499)
(1017, 1003)
(23, 20)
(176, 483)
(56, 755)
(915, 381)
(151, 917)
(125, 152)
(218, 654)
(1007, 373)
(828, 753)
(588, 18)
(905, 544)
(352, 696)
(941, 336)
(147, 61)
(240, 839)
(637, 942)
(544, 750)
(0, 82)
(692, 500)
(457, 852)
(9, 908)
(218, 813)
(479, 143)
(456, 541)
(887, 436)
(569, 100)
(241, 298)
(904, 661)
(707, 611)
(824, 885)
(699, 745)
(83, 85)
(441, 422)
(832, 496)
(731, 368)
(47, 960)
(965, 989)
(777, 779)
(519, 266)
(56, 646)
(670, 773)
(623, 621)
(844, 886)
(372, 708)
(283, 119)
(1007, 314)
(185, 423)
(32, 913)
(286, 918)
(33, 146)
(623, 718)
(551, 875)
(202, 679)
(819, 731)
(898, 835)
(766, 791)
(779, 818)
(29, 527)
(790, 462)
(979, 770)
(346, 735)
(189, 397)
(677, 145)
(864, 368)
(364, 150)
(351, 323)
(859, 920)
(619, 54)
(801, 616)
(738, 1011)
(763, 317)
(556, 761)
(161, 226)
(619, 861)
(866, 1014)
(889, 786)
(942, 166)
(708, 462)
(469, 130)
(767, 843)
(851, 327)
(386, 9)
(376, 394)
(125, 437)
(16, 773)
(743, 767)
(564, 581)
(431, 821)
(551, 155)
(268, 75)
(971, 113)
(354, 727)
(31, 160)
(895, 111)
(209, 540)
(395, 224)
(354, 413)
(628, 120)
(324, 221)
(795, 742)
(979, 661)
(714, 754)
(345, 756)
(39, 28)
(886, 441)
(641, 874)
(939, 878)
(653, 888)
(885, 170)
(98, 93)
(133, 822)
(880, 163)
(792, 155)
(581, 1015)
(375, 932)
(437, 513)
(151, 390)
(932, 644)
(586, 533)
(0, 943)
(177, 1021)
(125, 596)
(151, 199)
(516, 615)
(851, 189)
(258, 812)
(176, 321)
(900, 353)
(249, 79)
(244, 13)
(4, 980)
(249, 1010)
(908, 176)
(397, 64)
(266, 650)
(555, 662)
(872, 735)
(122, 993)
(401, 932)
(1001, 779)
(807, 224)
(734, 294)
(842, 1020)
(603, 453)
(309, 812)
(658, 692)
(731, 262)
(437, 564)
(962, 916)
(701, 500)
(559, 726)
(627, 894)
(234, 820)
(422, 333)
(470, 137)
(116, 987)
(407, 286)
(180, 864)
(331, 284)
(470, 698)
(281, 762)
(795, 248)
(286, 646)
(522, 266)
(938, 771)
(913, 470)
(450, 64)
(892, 469)
(6, 789)
(366, 210)
(504, 639)
(801, 500)
(774, 375)
(927, 601)
(410, 721)
(273, 622)
(237, 655)
(355, 250)
(288, 340)
(594, 468)
(524, 458)
(526, 67)
(371, 320)
(110, 510)
(42, 709)
(648, 568)
(678, 905)
(438, 491)
(174, 139)
(64, 306)
(275, 306)
(967, 169)
(940, 269)
(158, 526)
(958, 673)
(625, 12)
(223, 356)
(319, 405)
(117, 727)
(79, 798)
(476, 338)
(390, 152)
(868, 121)
(22, 21)
(55, 341)
(359, 821)
(306, 943)
(31, 328)
(827, 447)
(797, 786)
(708, 80)
(773, 117)
(284, 994)
(449, 587)
(716, 274)
(311, 529)
(860, 965)
(11, 921)
(204, 19)
(625, 351)
(479, 836)
(1021, 141)
(187, 102)
(426, 1014)
(702, 322)
(490, 116)
(347, 674)
(763, 621)
(368, 149)
(827, 305)
(809, 933)
(144, 603)
(96, 782)
(520, 616)
(162, 794)
(339, 264)
(523, 722)
(522, 40)
(311, 937)
(272, 550)
(241, 616)
(967, 312)
(589, 46)
(173, 574)
(691, 200)
(31, 751)
(73, 318)
(738, 496)
(932, 534)
(710, 584)
(885, 23)
(405, 21)
(438, 299)
(339, 664)
(378, 580)
(13, 139)
(809, 1019)
(633, 675)
(813, 325)
(675, 555)
(619, 234)
(540, 885)
(668, 537)
(647, 676)
(528, 440)
(22, 873)
(316, 623)
(64, 970)
(241, 383)
(160, 792)
(99, 60)
(900, 789)
(231, 361)
(27, 718)
(350, 183)
(782, 560)
(1016, 199)
(697, 934)
(802, 467)
(849, 733)
(630, 49)
(496, 773)
(321, 221)
(684, 1023)
(365, 778)
(679, 930)
(545, 919)
(552, 775)
(104, 784)
(859, 62)
(201, 681)
(661, 296)
(402, 232)
(433, 399)
(543, 620)
(229, 323)
(1017, 698)
(376, 251)
(166, 687)
(840, 656)
(518, 155)
(866, 847)
(879, 651)
(151, 644)
(71, 893)
(471, 407)
(716, 325)
(984, 525)
(89, 462)
(173, 197)
(721, 172)
(73, 399)
(152, 773)
(649, 806)
(426, 570)
(790, 663)
(511, 1023)
(711, 983)
(5, 991)
(449, 433)
(750, 736)
(186, 509)
(826, 52)
(399, 260)
(961, 366)
(1007, 893)
(567, 737)
(219, 647)
(673, 833)
(982, 304)
(97, 394)
(428, 946)
(434, 580)
(386, 132)
(971, 61)
(82, 484)
(48, 286)
(1005, 662)
(209, 752)
(872, 967)
(517, 939)
(66, 610)
(303, 476)
(343, 897)
(778, 802)
(665, 205)
(1010, 83)
(921, 182)
(203, 42)
(534, 637)
(253, 512)
(459, 55)
(840, 118)
(174, 463)
(729, 312)
(637, 109)
(883, 205)
(510, 28)
(589, 152)
(726, 842)
(7, 632)
(974, 530)
(342, 237)
(547, 1)
(572, 359)
(389, 576)
(847, 195)
(643, 619)
(675, 316)
(1012, 224)
(473, 390)
(256, 373)
(636, 342)
(215, 589)
(676, 265)
(532, 819)
(584, 916)
(964, 375)
(44, 277)
(913, 15)
(654, 197)
(498, 339)
(215, 709)
(96, 526)
(773, 477)
(609, 730)
(975, 707)
(16, 7)
(227, 186)
(850, 638)
(933, 312)
(976, 574)
(716, 1010)
(647, 49)
(834, 299)
(607, 392)
(849, 645)
(826, 463)
(362, 1010)
(439, 923)
(986, 1022)
(505, 302)
(613, 192)
(659, 301)
(1012, 76)
(769, 168)
(772, 695)
(177, 836)
(422, 218)
(517, 215)
(879, 801)
(760, 738)
(72, 137)
(858, 300)
(603, 214)
(99, 85)
(262, 969)
(858, 116)
(86, 572)
(455, 61)
(707, 755)
(632, 999)
(345, 612)
(110, 871)
(360, 958)
(332, 753)
(311, 997)
(381, 889)
(184, 629)
(974, 1010)
(514, 291)
(902, 290)
(891, 208)
(788, 700)
(117, 758)
(56, 628)
(245, 829)
(428, 220)
(859, 237)
(128, 767)
(757, 949)
(357, 88)
(17, 1022)
(390, 1002)
(1005, 592)
(263, 467)
(770, 544)
(771, 187)
(551, 39)
(976, 609)
(544, 697)
(807, 497)
(934, 800)
(941, 968)
(506, 583)
(597, 284)
(508, 15)
(222, 604)
(17, 605)
(337, 236)
(124, 1007)
(584, 1022)
(1, 605)
(973, 792)
(158, 833)
(365, 785)
(763, 695)
(5, 208)
(879, 250)
(45, 716)
(24, 727)
(304, 993)
(419, 408)
(333, 121)
(12, 788)
(235, 686)
(242, 788)
(426, 259)
(51, 546)
(412, 528)
(455, 546)
(70, 769)
(721, 200)
(307, 994)
(423, 147)
(558, 753)
(427, 218)
(624, 736)
(31, 895)
(619, 771)
(568, 954)
(317, 582)
(841, 479)
(594, 22)
(179, 601)
(993, 339)
(625, 754)
(22, 333)
(878, 367)
(670, 532)
(852, 845)
(304, 632)
(167, 381)
(729, 810)
(788, 689)
(813, 19)
(805, 584)
(561, 488)
(843, 303)
(283, 303)
(437, 123)
(247, 69)
(611, 388)
(314, 203)
(302, 694)
(79, 155)
(256, 741)
(220, 960)
(930, 317)
(641, 204)
(725, 1008)
(821, 237)
(268, 108)
(165, 12)
(186, 369)
(206, 97)
(91, 105)
(498, 78)
(935, 677)
(522, 685)
(363, 707)
(428, 247)
(191, 859)
(311, 577)
(554, 949)
(439, 841)
(320, 620)
(747, 537)
(944, 971)
(107, 1001)
(1002, 385)
(94, 98)
(569, 124)
(17, 9)
(402, 994)
(926, 621)
(985, 775)
(501, 113)
(197, 432)
(739, 21)
(268, 238)
(758, 614)
(833, 316)
(784, 473)
(332, 493)
(933, 6)
(571, 746)
(43, 136)
(480, 726)
(981, 430)
(961, 681)
(412, 69)
(592, 9)
(891, 818)
(783, 480)
(817, 219)
(934, 418)
(56, 567)
(451, 216)
(960, 138)
(798, 235)
(535, 172)
(268, 945)
(875, 822)
(933, 77)
(689, 779)
(787, 848)
(351, 215)
(33, 465)
(24, 581)
(952, 491)
(633, 244)
(125, 655)
(268, 785)
(847, 817)
(348, 530)
(367, 422)
(871, 100)
(756, 504)
(738, 692)
(933, 841)
(493, 310)
(122, 973)
(220, 763)
(378, 748)
(38, 975)
(766, 828)
(950, 813)
(462, 40)
(733, 803)
(188, 226)
(118, 724)
(999, 569)
(238, 468)
(940, 378)
(936, 26)
(390, 176)
(104, 829)
(602, 971)
(235, 802)
(856, 459)
(814, 535)
(169, 206)
(451, 612)
(809, 941)
(403, 242)
(867, 802)
(464, 869)
(659, 562)
(696, 577)
(794, 630)
(868, 1021)
(265, 827)
(379, 581)
(128, 486)
(543, 73)
(929, 122)
(862, 352)
(521, 239)
(737, 259)
(508, 418)
(974, 582)
(483, 394)
(466, 663)
(102, 847)
(635, 30)
(22, 434)
(851, 324)
(588, 796)
(7, 785)
(868, 796)
(776, 997)
(542, 1009)
(4, 272)
(588, 762)
(475, 335)
(366, 371)
(7, 60)
(348, 853)
(714, 83)
(481, 649)
(371, 148)
(714, 618)
(378, 19)
(569, 101)
(682, 332)
(690, 491)
(813, 1002)
(94, 802)
(15, 786)
(626, 117)
(477, 1016)
(199, 823)
(827, 471)
(423, 63)
(136, 326)
(698, 781)
(56, 168)
(288, 701)
(474, 856)
(858, 1)
(901, 706)
(979, 512)
(564, 281)
(52, 601)
(427, 217)
(81, 679)
(906, 709)
(390, 926)
(63, 697)
(182, 696)
(534, 881)
(727, 575)
(750, 640)
(593, 210)
(96, 547)
(396, 32)
(750, 482)
(790, 280)
(876, 93)
(421, 469)
(988, 755)
(95, 729)
(171, 822)
(50, 971)
(924, 146)
(846, 325)
(771, 433)
(808, 927)
(167, 818)
(940, 57)
(262, 926)
(881, 581)
(874, 656)
(649, 487)
(810, 633)
(66, 471)
(237, 1001)
(531, 429)
(216, 898)
(764, 519)
(681, 399)
(210, 650)
(986, 332)
(525, 546)
(527, 8)
(197, 809)
(761, 288)
(813, 657)
(1012, 795)
(454, 115)
(267, 632)
(766, 300)
(10, 472)
(585, 974)
(144, 446)
(783, 733)
(116, 865)
(273, 496)
(27, 706)
(19, 133)
(435, 652)
(758, 715)
(802, 665)
(195, 901)
(946, 350)
(336, 510)
(442, 737)
(440, 1004)
(120, 19)
(833, 297)
(426, 700)
(295, 294)
(401, 635)
(160, 835)
(266, 826)
(833, 266)
(92, 539)
(137, 28)
(285, 429)
(732, 322)
(851, 927)
(725, 256)
(13, 567)
(313, 219)
(261, 764)
(394, 868)
(84, 802)
(306, 106)
(876, 37)
(488, 604)
(962, 346)
(116, 824)
(299, 942)
(370, 637)
