(490, 536)
(306, 327)
(197, 717)
(973, 386)
(720, 213)
(976, 84)
(257, 299)
(797, 1011)
(963, 77)
(346, 937)
(467, 820)
(328, 846)
(625, 632)
(304, 387)
(252, 624)
(446, 494)
(355, 298)
(323, 98)
(468, 589)
(766, 499)
(74, 221)
(470, 482)
(264, 147)
(383, 961)
(200, 525)
(314, 330)
(915, 248)
(2, 293)
(551, 562)
(264, 614)
(427, 205)
(476, 666)
(593, 884)
(902, 142)
(913, 642)
(522, 970)
(613, 797)
(348, 863)
(420, 33)
(286, 903)
(157, 644)
(152, 564)
(351, 850)
(929, 340)
(686, 778)
(121, 170)
(87, 729)
(651, 247)
(997, 728)
(341, 880)
(429, 443)
(842, 807)
(834, 827)
(425, 745)
(989, 173)
(892, 531)
(38, 616)
(992, 595)
(620, 59)
(691, 80)
(226, 759)
(228, 29)
(794, 549)
(41, 213)
(700, 402)
(514, 145)
(963, 11)
(675, 58)
(608, 1022)
(731, 261)
(445, 715)
(86, 89)
(188, 951)
(756, 866)
(339, 584)
(391, 875)
(853, 1016)
(719, 1008)
(261, 120)
(322, 295)
(1017, 132)
(592, 594)
(809, 216)
(3, 983)
(864, 1001)
(459, 951)
(123, 896)
(0, 473)
(807, 750)
(607, 498)
(960, 851)
(863, 540)
(771, 959)
(661, 340)
(609, 258)
(213, 920)
(426, 935)
(815, 485)
(617, 605)
(950, 386)
(560, 140)
(818, 596)
(729, 342)
(387, 466)
(931, 264)
(895, 975)
(722, 858)
(577, 682)
(428, 707)
(336, 144)
(736, 578)
(117, 471)
(451, 212)
(915, 14)
(239, 812)
(38, 975)
(721, 783)
(506, 999)
(495, 718)
(782, 167)
(567, 327)
(906, 1023)
(566, 54)
(557, 671)
(419, 40)
(78, 918)
(762, 219)
(665, 363)
(225, 125)
(218, 732)
(714, 849)
(497, 504)
(952, 742)
(396, 185)
(174, 635)
(523, 300)
(599, 34)
(681, 958)
(385, 834)
(638, 131)
(553, 114)
(939, 180)
(178, 558)
(401, 57)
(115, 349)
(998, 416)
(933, 363)
(254, 13)
(678, 61)
(739, 481)
(651, 702)
(603, 955)
(272, 456)
(111, 14)
(816, 249)
(585, 261)
(686, 254)
(914, 200)
(341, 701)
(450, 90)
(715, 1009)
(564, 122)
(582, 247)
(184, 151)
(619, 365)
(428, 658)
(461, 827)
(591, 637)
(458, 670)
(306, 33)
(379, 961)
(972, 1005)
(327, 785)
(863, 208)
(591, 559)
(770, 808)
(825, 531)
(292, 185)
(750, 924)
(760, 439)
(478, 239)
(996, 912)
(990, 714)
(183, 209)
(957, 725)
(490, 948)
(330, 835)
(177, 915)
(732, 963)
(560, 483)
(948, 318)
(446, 819)
(537, 862)
(319, 402)
(621, 625)
(644, 393)
(745, 137)
(957, 827)
(418, 956)
(375, 520)
(431, 134)
(356, 705)
(966, 635)
(314, 874)
(791, 100)
(763, 448)
(499, 227)
(921, 236)
(405, 609)
(269, 47)
(276, 932)
(912, 100)
(890, 760)
(35, 301)
(465, 433)
(430, 576)
(583, 718)
(472, 53)
(587, 968)
(475, 861)
(221, 507)
(61, 65)
(810, 575)
(180, 369)
(697, 903)
(376, 930)
(455, 177)
(746, 254)
(310, 676)
(39, 328)
(240, 209)
(419, 936)
(577, 142)
(638, 119)
(745, 795)
(962, 613)
(699, 430)
(422, 108)
(497, 717)
(912, 2)
(938, 974)
(220, 1017)
(744, 805)
(871, 84)
(108, 281)
(757, 478)
(899, 942)
(775, 551)
(886, 693)
(695, 714)
(636, 183)
(810, 251)
(934, 477)
(772, 881)
(930, 156)
(838, 1008)
(566, 683)
(628, 998)
(701, 577)
(452, 80)
(634, 808)
(594, 746)
(20, 762)
(606, 311)
(309, 551)
(562, 723)
(336, 357)
(176, 521)
(533, 644)
(889, 142)
(49, 119)
(512, 822)
(935, 718)
(928, 32)
(453, 478)
(856, 115)
(296, 244)
(393, 271)
(860, 24)
(337, 648)
(732, 849)
(271, 810)
(563, 180)
(192, 518)
(305, 125)
(510, 522)
(314, 280)
(39, 808)
(356, 219)
(373, 997)
(494, 522)
(739, 669)
(841, 973)
(337, 628)
(943, 42)
(224, 367)
(233, 663)
(17, 717)
(774, 946)
(773, 317)
(150, 995)
(275, 142)
(139, 284)
(522, 61)
(321, 417)
(870, 791)
(910, 521)
(734, 895)
(97, 1002)
(298, 391)
(99, 277)
(948, 548)
(865, 233)
(833, 265)
(162, 148)
(505, 311)
(23, 8)
(381, 702)
(276, 910)
(323, 181)
(325, 1018)
(819, 793)
(541, 635)
(68, 708)
(516, 43)
(631, 304)
(398, 342)
(208, 248)
(126, 352)
(296, 391)
(360, 234)
(971, 199)
(491, 828)
(694, 548)
(993, 156)
(622, 356)
(994, 449)
(58, 711)
(632, 635)
(886, 507)
(68, 840)
(613, 845)
(233, 452)
(306, 813)
(913, 795)
(904, 230)
(388, 387)
(557, 752)
(59, 258)
(26, 1007)
(722, 617)
(683, 404)
(548, 865)
(574, 146)
(388, 212)
(207, 62)
(992, 147)
(499, 680)
(573, 997)
(50, 454)
(955, 345)
(298, 87)
(828, 495)
(967, 1000)
(957, 503)
(840, 624)
(541, 705)
(125, 335)
(501, 292)
(517, 466)
(358, 275)
(896, 733)
(377, 574)
(296, 90)
(425, 67)
(16, 828)
(179, 361)
(796, 980)
(129, 834)
(511, 557)
(245, 437)
(148, 88)
(412, 634)
(298, 608)
(707, 332)
(923, 735)
(268, 879)
(237, 76)
(434, 765)
(34, 766)
(893, 91)
(403, 824)
(47, 311)
(993, 782)
(522, 725)
(581, 356)
(997, 193)
(327, 826)
(453, 380)
(473, 175)
(676, 900)
(435, 773)
(76, 543)
(679, 898)
(310, 36)
(172, 287)
(308, 803)
(942, 921)
(500, 186)
(937, 790)
(189, 576)
(105, 494)
(32, 803)
(110, 730)
(899, 118)
(521, 964)
(442, 547)
(155, 828)
(799, 200)
(937, 88)
(377, 927)
(95, 195)
(535, 976)
(661, 216)
(778, 10)
(641, 642)
(173, 654)
(440, 482)
(984, 430)
(662, 907)
(945, 440)
(37, 693)
(708, 92)
(167, 248)
(954, 272)
(899, 784)
(697, 319)
(986, 13)
(33, 726)
(968, 609)
(1007, 425)
(421, 781)
(715, 139)
(107, 340)
(28, 899)
(932, 263)
(444, 336)
(868, 999)
(641, 34)
(232, 1017)
(864, 481)
(66, 795)
(810, 627)
(216, 286)
(123, 367)
(942, 682)
(916, 752)
(919, 339)
(559, 188)
(510, 146)
(986, 847)
(309, 951)
(466, 221)
(68, 5)
(662, 162)
(802, 306)
(280, 651)
(818, 98)
(599, 116)
(823, 46)
(577, 641)
(142, 254)
(908, 678)
(881, 273)
(765, 21)
(321, 399)
(429, 33)
(773, 179)
(553, 143)
(533, 1013)
(287, 25)
(96, 778)
(123, 815)
(122, 284)
(571, 342)
(739, 332)
(767, 669)
(976, 579)
(559, 58)
(248, 550)
(948, 980)
(797, 530)
(322, 423)
(690, 243)
(725, 288)
(966, 880)
(984, 353)
(674, 473)
(0, 171)
(796, 998)
(72, 128)
(59, 310)
(332, 474)
(392, 649)
(39, 923)
(121, 1003)
(1003, 1001)
(394, 556)
(163, 854)
(928, 510)
(705, 834)
(897, 632)
(464, 781)
(758, 743)
(772, 295)
(78, 753)
(187, 688)
(496, 474)
(642, 397)
(400, 812)
(788, 617)
(10, 275)
(474, 1015)
(58, 135)
(601, 686)
(57, 168)
(331, 760)
(995, 685)
(933, 819)
(328, 714)
(32, 136)
(695, 244)
(719, 445)
(592, 240)
(178, 993)
(360, 27)
(657, 159)
(309, 478)
(308, 567)
(430, 299)
(507, 641)
(500, 91)
(131, 641)
(92, 358)
(428, 731)
(13, 991)
(57, 852)
(531, 890)
(655, 659)
(701, 485)
(861, 746)
(562, 711)
(505, 251)
(790, 392)
(16, 235)
(917, 21)
(500, 759)
(269, 353)
(806, 15)
(750, 758)
(853, 854)
(247, 72)
(560, 655)
(486, 543)
(832, 21)
(277, 546)
(282, 836)
(37, 498)
(151, 749)
(155, 529)
(674, 191)
(761, 745)
(706, 167)
(323, 536)
(225, 369)
(257, 989)
(825, 203)
(199, 250)
(514, 440)
(853, 42)
(817, 966)
(639, 232)
(718, 864)
(240, 199)
(854, 42)
(309, 927)
(436, 785)
(152, 945)
(307, 666)
(133, 386)
(867, 920)
(284, 850)
(259, 870)
(631, 910)
(131, 977)
(409, 627)
(146, 356)
(982, 225)
(87, 570)
(412, 892)
(1022, 760)
(640, 379)
(918, 718)
(314, 582)
(928, 501)
(355, 18)
(532, 744)
(439, 511)
(409, 129)
(462, 965)
(932, 467)
(772, 575)
(1018, 818)
(315, 604)
(824, 397)
(571, 323)
(894, 452)
(536, 133)
(119, 761)
(285, 86)
(376, 80)
(71, 360)
(287, 740)
(782, 553)
(442, 152)
(726, 741)
(186, 123)
(892, 509)
(765, 393)
(590, 126)
(845, 924)
(89, 667)
(787, 174)
(541, 42)
(261, 635)
(901, 16)
(207, 645)
(672, 611)
(249, 97)
(447, 919)
(362, 541)
(463, 476)
(20, 429)
(616, 157)
(964, 660)
(558, 771)
(427, 463)
(664, 91)
(610, 60)
(577, 785)
(807, 988)
(5, 315)
(421, 979)
(12, 145)
(138, 893)
(514, 245)
(239, 144)
(567, 851)
(939, 56)
(921, 683)
(795, 210)
(239, 813)
(367, 721)
(739, 629)
(320, 321)
(228, 1021)
(99, 172)
(106, 404)
(458, 673)
(26, 760)
(768, 903)
(831, 498)
(558, 298)
(401, 692)
(312, 81)
(832, 484)
(960, 827)
(545, 235)
(410, 281)
(592, 28)
(891, 172)
(5, 121)
(813, 716)
(140, 77)
(432, 453)
(787, 69)
(56, 587)
(616, 815)
(463, 29)
(571, 249)
(330, 666)
(307, 333)
(863, 637)
(808, 593)
(562, 767)
(616, 398)
(617, 818)
(500, 423)
(873, 389)
(504, 845)
(127, 368)
(371, 547)
(254, 541)
(945, 355)
(477, 37)
(37, 9)
(917, 437)
(151, 389)
(661, 326)
(556, 994)
(251, 461)
(294, 443)
(344, 337)
(667, 598)
(158, 473)
(831, 560)
(477, 282)
(597, 37)
(1018, 479)
(649, 951)
(437, 567)
(539, 602)
(46, 655)
(515, 813)
(339, 199)
(53, 839)
(481, 905)
(107, 792)
(860, 154)
(239, 1021)
(347, 659)
(918, 924)
(47, 447)
(451, 341)
(334, 243)
(37, 84)
(649, 303)
(424, 475)
(986, 198)
(620, 248)
(901, 100)
(121, 332)
(147, 921)
(322, 774)
(515, 599)
(257, 517)
(77, 1013)
(705, 639)
(231, 879)
(452, 407)
(786, 45)
(793, 658)
(854, 904)
(616, 576)
(998, 889)
(263, 347)
(675, 846)
(620, 311)
(472, 321)
(902, 85)
(73, 771)
(377, 990)
(358, 836)
(114, 834)
(1000, 419)
(737, 252)
(754, 238)
(846, 296)
(671, 0)
(1014, 372)
(48, 366)
(714, 105)
(395, 272)
(325, 1015)
(291, 446)
(900, 663)
(941, 4)
(524, 289)
(387, 568)
(952, 579)
(489, 646)
(702, 628)
(653, 566)
(592, 1009)
(13, 619)
(85, 839)
(687, 229)
(923, 297)
(729, 796)
(526, 391)
(962, 281)
(470, 71)
(455, 228)
(969, 16)
(61, 1022)
(386, 631)
(431, 457)
(205, 577)
(665, 359)
(135, 780)
(549, 95)
(725, 501)
(190, 204)
(364, 742)
(112, 627)
(513, 44)
(819, 354)
(137, 936)
(104, 745)
(250, 87)
(559, 1017)
(736, 836)
(1009, 976)
(603, 512)
(69, 384)
(477, 339)
(263, 704)
(734, 490)
(796, 357)
(172, 482)
(65, 69)
(970, 181)
(728, 111)
(29, 277)
(943, 706)
(590, 310)
(87, 408)
(814, 958)
(168, 656)
(212, 870)
(111, 542)
(322, 571)
(212, 642)
(673, 765)
(1003, 242)
(385, 391)
(511, 325)
(471, 700)
(913, 479)
(256, 815)
(738, 2)
(634, 27)
(284, 553)
(166, 324)
(300, 961)
(50, 346)
(657, 202)
(589, 722)
(697, 745)
(979, 127)
(341, 435)
(935, 756)
(857, 147)
(609, 731)
(323, 810)
(501, 871)
(603, 789)
(66, 495)
(651, 207)
(270, 238)
(808, 90)
(394, 520)
(465, 201)
(294, 225)
(621, 70)
(271, 607)
(276, 970)
(764, 592)
(842, 693)
(392, 51)
(1019, 229)
(731, 396)
(552, 39)
(752, 765)
(830, 515)
(926, 173)
(422, 624)
(861, 846)
(829, 331)
(809, 988)
(348, 72)
(787, 297)
(42, 331)
(873, 786)
(824, 5)
(538, 756)
(540, 277)
(415, 770)
(122, 902)
(12, 823)
(983, 450)
(439, 27)
(298, 962)
(589, 738)
(566, 794)
(454, 805)
(952, 572)
(760, 888)
(771, 0)
(591, 385)
(870, 937)
(250, 313)
(913, 784)
(935, 1006)
(857, 525)
(160, 106)
(910, 960)
(956, 72)
(139, 1011)
(111, 710)
(123, 12)
(224, 219)
(763, 894)
(723, 65)
(386, 675)
(866, 194)
(581, 359)
(677, 819)
(573, 556)
(614, 38)
(734, 761)
(604, 284)
(397, 906)
(454, 297)
(915, 675)
(190, 567)
(749, 754)
(930, 297)
(922, 251)
(470, 836)
(568, 694)
(192, 449)
(307, 883)
(1017, 347)
(979, 165)
(1003, 539)
(173, 785)
(736, 688)
(758, 468)
(886, 657)
(1015, 125)
(415, 736)
(140, 802)
(93, 508)
(664, 672)
(531, 683)
(260, 845)
(394, 878)
(18, 88)
(484, 482)
(451, 43)
(336, 925)
(317, 714)
(672, 118)
(593, 946)
(581, 132)
(54, 888)
(805, 530)
(288, 258)
(858, 527)
(826, 543)
(157, 427)
(670, 91)
(476, 937)
(204, 652)
(13, 476)
(746, 420)
(341, 889)
(535, 277)
(983, 189)
(716, 862)
(367, 101)
(441, 310)
(232, 292)
(750, 511)
(1011, 928)
(634, 709)
(811, 477)
(478, 987)
(124, 241)
(416, 518)
(982, 953)
(839, 315)
(939, 908)
(97, 936)
(896, 113)
(833, 911)
(448, 924)
(597, 17)
(28, 777)
(372, 615)
(428, 721)
(637, 407)
(214, 958)
(770, 450)
(942, 502)
(957, 382)
(491, 612)
(40, 834)
(903, 277)
(810, 74)
(646, 377)
(892, 732)
(817, 151)
(257, 261)
(266, 276)
(771, 257)
(802, 908)
(351, 705)
(937, 491)
(734, 520)
(356, 972)
(208, 1016)
(642, 679)
(638, 930)
(850, 168)
(380, 169)
(440, 905)
(775, 42)
(61, 555)
(378, 642)
(913, 313)
(398, 960)
(618, 145)
(308, 157)
(140, 666)
(217, 783)
(527, 798)
(174, 972)
(443, 80)
(408, 534)
(329, 540)
(939, 371)
(567, 624)
(603, 966)
(518, 176)
(563, 328)
(564, 222)
(487, 39)
(58, 298)
(278, 887)
(505, 390)
(110, 752)
(77, 880)
(852, 647)
(328, 742)
(567, 186)
(174, 682)
(281, 925)
(251, 192)
(728, 212)
(610, 216)
(523, 58)
(87, 355)
(465, 83)
(744, 555)
(927, 158)
(673, 536)
(610, 789)
(376, 257)
(476, 192)
(441, 109)
(730, 106)
(646, 736)
(1006, 152)
(381, 917)
(147, 43)
(785, 335)
(289, 1022)
(537, 532)
(208, 782)
(555, 797)
(846, 371)
(385, 243)
(245, 474)
(806, 741)
(602, 616)
(717, 652)
(625, 293)
(193, 886)
(775, 657)
(497, 436)
(272, 407)
(132, 102)
(772, 277)
(94, 517)
(752, 697)
(172, 87)
(170, 24)
(49, 452)
(774, 917)
(667, 920)
(143, 378)
(883, 708)
(228, 466)
(210, 371)
(389, 655)
(173, 739)
(508, 57)
(139, 965)
(132, 12)
(647, 590)
(445, 454)
(941, 757)
(689, 665)
(854, 496)
(411, 352)
(113, 910)
(380, 783)
(577, 259)
(569, 801)
(202, 807)
(735, 151)
(895, 815)
(958, 0)
(127, 378)
(540, 771)
(558, 849)
(1020, 955)
(123, 939)
(133, 807)
(526, 792)
(574, 958)
(149, 439)
(667, 829)
(977, 486)
(493, 395)
(657, 666)
(641, 272)
(20, 67)
(700, 185)
(860, 992)
(598, 684)
(698, 681)
(398, 296)
(970, 891)
(490, 321)
(47, 16)
(91, 218)
(52, 7)
(934, 258)
(190, 1021)
(458, 556)
(907, 165)
(292, 1010)
(11, 883)
(33, 359)
(207, 591)
(126, 487)
(329, 709)
(375, 1001)
(341, 950)
(164, 920)
(1007, 287)
(958, 869)
(938, 904)
(721, 219)
(722, 448)
(624, 360)
(664, 356)
(328, 538)
(766, 94)
(418, 704)
(72, 957)
(239, 712)
(290, 103)
(193, 953)
(291, 790)
(164, 798)
(624, 286)
(903, 534)
(785, 851)
(710, 378)
(857, 670)
(647, 109)
(801, 288)
(567, 406)
(237, 865)
(944, 998)
(723, 787)
(839, 554)
(228, 118)
(783, 1015)
(928, 748)
(410, 256)
(466, 578)
(770, 188)
(1003, 118)
(861, 581)
(43, 67)
(838, 840)
(368, 247)
(397, 658)
(933, 831)
(691, 491)
(312, 531)
(441, 572)
(24, 447)
(162, 386)
(593, 22)
(483, 163)
(726, 344)
(972, 837)
(348, 398)
(942, 450)
(1008, 190)
(66, 270)
(1016, 922)
(254, 705)
(336, 34)
(807, 799)
(1002, 486)
(157, 821)
(724, 401)
(720, 50)
(211, 466)
(701, 842)
(4, 524)
(864, 470)
(549, 784)
(722, 876)
(560, 135)
(168, 196)
(894, 140)
(267, 127)
(555, 840)
(313, 648)
(624, 316)
(613, 819)
(431, 706)
(290, 675)
(342, 919)
(751, 981)
(134, 480)
(43, 984)
(588, 228)
(678, 692)
(251, 410)
(934, 514)
(944, 580)
(464, 767)
(585, 1015)
(394, 274)
(670, 35)
(78, 733)
(924, 925)
(736, 141)
(289, 667)
(251, 264)
(688, 374)
(886, 567)
(225, 550)
(148, 21)
(328, 149)
(225, 344)
(800, 531)
(911, 943)
(599, 484)
(965, 264)
(833, 156)
(696, 1)
(232, 877)
(113, 310)
(387, 765)
(494, 501)
(1021, 148)
(942, 336)
(481, 834)
(915, 843)
(486, 760)
(469, 167)
(617, 681)
(408, 115)
(183, 576)
(681, 777)
(328, 65)
(9, 693)
(41, 174)
(531, 929)
(548, 62)
(983, 325)
(370, 423)
(871, 675)
(90, 610)
(142, 911)
(24, 742)
(386, 837)
(379, 879)
(562, 930)
(261, 142)
(439, 664)
(101, 189)
(332, 239)
(764, 973)
(225, 76)
(337, 361)
(934, 926)
(29, 271)
(896, 825)
(661, 776)
(694, 41)
(848, 677)
(912, 881)
(633, 541)
(902, 878)
(349, 676)
(324, 496)
(604, 882)
(995, 183)
(212, 693)
(773, 943)
(356, 664)
(938, 1003)
(202, 837)
(319, 985)
(158, 362)
(705, 18)
(874, 0)
(712, 440)
(724, 529)
(654, 356)
(819, 1017)
(181, 240)
(388, 332)
(690, 645)
(844, 636)
(501, 702)
(450, 86)
(718, 119)
(648, 956)
(227, 98)
(10, 171)
(702, 359)
(177, 1007)
(202, 266)
(826, 177)
(555, 25)
(34, 486)
(677, 66)
(113, 881)
(344, 450)
(210, 377)
(300, 449)
(572, 535)
(144, 483)
(564, 461)
(218, 464)
(673, 788)
(48, 598)
(44, 855)
(322, 155)
(1015, 218)
(911, 568)
(724, 636)
(562, 993)
(615, 17)
(367, 939)
(75, 554)
(929, 460)
(755, 122)
(713, 529)
(308, 886)
(572, 620)
(968, 1011)
(393, 985)
(616, 385)
(134, 767)
(3, 625)
(697, 298)
(178, 861)
(265, 247)
(593, 400)
(548, 96)
(271, 571)
(767, 659)
(371, 85)
(46, 22)
(937, 729)
(534, 959)
(974, 282)
(536, 377)
(195, 138)
(379, 366)
(373, 168)
(1000, 606)
(783, 190)
(936, 554)
(113, 570)
(530, 710)
(887, 922)
(969, 4)
(796, 188)
(962, 817)
(840, 320)
(468, 627)
(599, 361)
(1021, 1022)
(271, 613)
(105, 140)
(617, 957)
(982, 7)
(187, 739)
(810, 686)
(576, 716)
(128, 350)
(139, 235)
(836, 485)
(277, 984)
(134, 39)
(846, 820)
(912, 338)
(570, 280)
(35, 187)
(545, 525)
(410, 927)
(76, 767)
(961, 394)
(306, 27)
(82, 968)
(821, 280)
(143, 282)
(220, 437)
(393, 264)
(919, 821)
(286, 275)
(921, 430)
(1014, 101)
(475, 1004)
(243, 767)
(815, 422)
(514, 271)
(765, 29)
(327, 443)
(434, 574)
(918, 443)
(310, 681)
(91, 560)
(523, 544)
(106, 683)
(356, 116)
(678, 596)
(786, 179)
(854, 328)
(643, 401)
(856, 219)
(486, 209)
(528, 363)
(612, 466)
(233, 952)
(441, 579)
(965, 410)
(509, 123)
(1023, 900)
(419, 383)
(712, 970)
(246, 970)
(552, 507)
(1016, 409)
(663, 273)
(581, 440)
(756, 640)
(401, 78)
(21, 595)
(872, 789)
(810, 840)
(819, 44)
(450, 572)
(69, 932)
(955, 66)
(44, 610)
(434, 592)
(766, 533)
(131, 724)
(774, 803)
(325, 770)
(773, 409)
(292, 708)
(375, 704)
(425, 453)
(856, 479)
(306, 57)
(551, 774)
(392, 860)
(561, 578)
(303, 55)
(195, 767)
(652, 424)
(657, 279)
(368, 760)
(422, 727)
(266, 258)
(118, 553)
(468, 529)
(649, 64)
(174, 629)
(456, 335)
(392, 142)
(973, 789)
(856, 307)
(776, 944)
(602, 200)
(543, 756)
(955, 641)
(785, 556)
(680, 395)
(804, 746)
(99, 192)
(626, 869)
(238, 18)
(313, 688)
(988, 626)
(655, 0)
(743, 954)
(955, 179)
(69, 840)
(368, 565)
(683, 811)
(202, 366)
(874, 668)
(892, 519)
(36, 497)
(275, 711)
(383, 48)
(818, 735)
(414, 87)
(543, 148)
(491, 831)
(597, 117)
(595, 364)
(487, 512)
(166, 384)
(180, 102)
(859, 940)
(572, 746)
(525, 542)
(326, 206)
(828, 282)
(114, 365)
(824, 1015)
(302, 431)
(317, 722)
(512, 760)
(543, 432)
(994, 799)
(883, 187)
(136, 314)
(618, 309)
(625, 373)
(814, 667)
(627, 872)
(653, 575)
(2, 804)
(525, 108)
(92, 687)
(912, 873)
(1007, 798)
(542, 90)
(820, 544)
(975, 496)
(476, 696)
(790, 29)
(184, 180)
(180, 263)
(769, 30)
(23, 237)
(502, 86)
(444, 470)
(38, 762)
(409, 959)
(575, 924)
(135, 871)
(955, 220)
(986, 759)
(324, 7)
(201, 216)
(639, 496)
(49, 299)
(189, 422)
(463, 935)
(908, 83)
(402, 291)
(619, 890)
(362, 763)
(345, 280)
(109, 244)
(534, 980)
(340, 694)
(729, 855)
(50, 602)
(534, 37)
(249, 968)
(519, 792)
(446, 279)
(27, 442)
(250, 410)
(416, 757)
(64, 588)
(803, 879)
(905, 1014)
(179, 676)
(29, 346)
(247, 406)
(551, 415)
(42, 279)
(200, 956)
(938, 552)
(319, 49)
(205, 1008)
(5, 23)
(401, 854)
(630, 643)
(263, 2)
(913, 877)
(858, 87)
(544, 27)
(1003, 156)
(529, 80)
(255, 3)
(366, 374)
(974, 771)
(379, 288)
(297, 923)
(990, 195)
(193, 366)
(249, 390)
(567, 326)
(152, 59)
(440, 800)
(121, 898)
(348, 789)
(35, 446)
(541, 622)
(889, 792)
(164, 1002)
(578, 337)
(53, 341)
(46, 809)
(501, 502)
(94, 187)
(393, 1007)
(784, 831)
(465, 683)
(296, 594)
(682, 423)
(768, 442)
(776, 883)
(664, 483)
(150, 408)
(378, 330)
(913, 654)
(119, 713)
(40, 150)
(864, 924)
(687, 695)
(994, 824)
(915, 720)
(349, 760)
(965, 711)
(28, 514)
(926, 716)
(830, 261)
(537, 31)
(522, 826)
(188, 983)
(323, 46)
(318, 564)
(105, 505)
(740, 792)
(247, 961)
(938, 591)
(508, 47)
(432, 748)
(477, 933)
(513, 114)
(157, 7)
(84, 695)
(720, 1006)
(411, 900)
(757, 630)
(474, 71)
(905, 560)
(623, 589)
(451, 1008)
(853, 707)
(668, 669)
(970, 234)
(857, 355)
(990, 743)
(656, 665)
(495, 517)
(921, 15)
(368, 89)
(730, 329)
(354, 598)
(71, 687)
(190, 884)
(953, 405)
(799, 376)
(356, 3)
(961, 421)
(801, 666)
(607, 692)
(1005, 881)
(883, 618)
(325, 719)
(407, 449)
(719, 892)
(18, 886)
(91, 533)
(835, 477)
(600, 792)
(792, 542)
(697, 122)
(413, 264)
(112, 1010)
(167, 201)
(489, 999)
(719, 871)
(97, 450)
(194, 972)
(985, 383)
(170, 867)
(550, 570)
(611, 228)
(321, 210)
(577, 547)
(937, 686)
(610, 688)
(564, 518)
(177, 201)
(185, 506)
(688, 898)
(388, 398)
(400, 99)
(205, 15)
(622, 200)
(957, 538)
(255, 481)
(610, 417)
(390, 861)
(639, 447)
(474, 341)
(738, 786)
(216, 828)
(216, 917)
(54, 691)
(51, 916)
(519, 900)
(581, 367)
(749, 227)
(570, 335)
(139, 240)
(742, 466)
(202, 395)
(273, 361)
(136, 567)
(591, 154)
(597, 463)
(83, 479)
(86, 398)
(72, 900)
(584, 426)
(1000, 107)
(605, 159)
(625, 557)
(781, 970)
(479, 555)
(31, 670)
(424, 171)
(977, 334)
(0, 180)
(827, 29)
(976, 721)
(324, 581)
(404, 560)
(166, 916)
(152, 245)
(716, 50)
(395, 710)
(380, 749)
(499, 896)
(939, 727)
(33, 490)
(941, 411)
(6, 834)
(662, 19)
(907, 563)
(213, 631)
(251, 607)
(985, 310)
(187, 808)
(532, 139)
(254, 597)
(152, 25)
(277, 937)
(81, 201)
(571, 819)
(108, 264)
(153, 687)
(141, 141)
(388, 218)
(949, 390)
(1011, 54)
(218, 92)
(604, 80)
(373, 870)
(560, 497)
(900, 648)
(122, 611)
(787, 163)
(474, 61)
(977, 295)
(919, 975)
(369, 221)
(16, 738)
(100, 800)
(350, 395)
(420, 906)
(148, 816)
(321, 701)
(623, 505)
(23, 70)
(683, 710)
(534, 1016)
(112, 920)
(717, 924)
(574, 1002)
(487, 550)
(421, 593)
(533, 210)
(140, 562)
(328, 417)
(290, 443)
(421, 535)
(389, 914)
(567, 299)
(886, 363)
(608, 641)
(964, 127)
(364, 711)
(876, 926)
(243, 554)
(30, 546)
(936, 741)
(586, 623)
(202, 781)
(131, 577)
(251, 23)
(301, 628)
(243, 724)
(127, 308)
(403, 584)
(306, 21)
(522, 720)
(998, 173)
(779, 895)
(314, 912)
(858, 755)
(781, 667)
(1003, 859)
(332, 560)
(514, 716)
(196, 347)
(161, 41)
(1010, 685)
(192, 358)
(510, 636)
(291, 1021)
(195, 8)
(628, 694)
(1021, 542)
(154, 507)
(754, 617)
(751, 216)
(123, 975)
(254, 51)
(32, 503)
(306, 759)
(908, 99)
(940, 982)
(289, 624)
(685, 375)
(953, 368)
(458, 1018)
(267, 380)
(495, 947)
(932, 118)
(92, 701)
(708, 574)
(999, 536)
(257, 929)
(684, 568)
(236, 976)
(717, 190)
(326, 78)
(71, 510)
(40, 644)
(184, 509)
(965, 450)
(3, 784)
(586, 190)
(60, 917)
(565, 664)
(149, 8)
(442, 85)
(388, 726)
(240, 311)
(984, 561)
(842, 642)
(450, 634)
(123, 473)
(122, 257)
(265, 146)
(75, 458)
(485, 269)
(49, 986)
(769, 631)
(341, 500)
(471, 569)
(944, 733)
(687, 182)
(620, 295)
(432, 216)
(797, 488)
(963, 157)
(292, 556)
(36, 45)
(43, 376)
(698, 7)
(1015, 109)
(292, 58)
(113, 65)
(461, 174)
(707, 182)
(496, 857)
(416, 506)
(1004, 446)
(1002, 107)
(206, 238)
(383, 5)
(1018, 223)
(793, 452)
(33, 110)
(403, 111)
(871, 588)
(346, 279)
(480, 783)
(22, 592)
(178, 146)
(864, 796)
(552, 325)
(734, 521)
(283, 263)
(748, 603)
(455, 780)
(587, 696)
(34, 492)
(485, 320)
(124, 290)
(932, 303)
(440, 924)
(104, 233)
(73, 106)
(1022, 799)
(856, 719)
(237, 37)
(648, 990)
(187, 202)
(526, 867)
(890, 311)
(388, 406)
(868, 321)
(655, 750)
(658, 383)
(605, 574)
(167, 913)
(488, 839)
(229, 120)
(519, 803)
(260, 414)
(209, 997)
(826, 222)
(326, 979)
(919, 822)
(546, 820)
(432, 640)
(976, 972)
(901, 660)
(417, 904)
(107, 438)
(113, 810)
(234, 256)
(103, 431)
(484, 117)
(667, 536)
(862, 740)
(426, 554)
(922, 119)
(427, 778)
(950, 667)
(311, 235)
(976, 437)
(607, 666)
(397, 399)
(463, 209)
(674, 937)
(632, 225)
(355, 579)
(527, 282)
(154, 1022)
(599, 736)
(906, 639)
(241, 685)
(320, 934)
(1012, 908)
(773, 78)
(442, 1021)
(90, 706)
(386, 9)
(767, 958)
(287, 420)
(46, 971)
(997, 957)
(848, 166)
(360, 791)
(973, 557)
(26, 210)
(728, 724)
(865, 685)
(79, 726)
(49, 374)
(901, 65)
(1023, 926)
(104, 905)
(1010, 486)
(380, 292)
(719, 537)
(970, 50)
(380, 897)
(1007, 783)
(473, 50)
(417, 751)
(108, 889)
(856, 419)
(165, 179)
(982, 722)
(939, 698)
(736, 417)
(394, 784)
(593, 860)
(910, 804)
(477, 1018)
(905, 88)
(31, 866)
(955, 421)
(226, 39)
(853, 349)
(19, 109)
(907, 36)
(435, 413)
(475, 41)
(905, 89)
(266, 13)
(734, 992)
(341, 283)
(832, 387)
(988, 133)
(180, 275)
(226, 506)
(691, 653)
(500, 6)
(144, 125)
(417, 269)
(649, 989)
(805, 615)
(758, 130)
(31, 611)
(184, 960)
(612, 102)
(415, 209)
(310, 850)
(1005, 372)
(81, 93)
(998, 66)
(156, 348)
(938, 408)
(23, 590)
(436, 525)
(305, 967)
(859, 216)
(914, 549)
(721, 128)
(581, 282)
(540, 787)
(846, 987)
(679, 660)
(820, 770)
(966, 752)
(733, 90)
(887, 742)
(415, 209)
(407, 876)
(680, 223)
(591, 730)
(486, 439)
(139, 382)
(93, 962)
(311, 676)
(350, 456)
(929, 311)
(708, 818)
(213, 857)
(811, 854)
(381, 207)
(397, 868)
(607, 217)
(641, 521)
(135, 607)
(479, 611)
(566, 936)
(684, 487)
(304, 740)
(802, 521)
(547, 59)
(921, 661)
(128, 866)
(477, 979)
(324, 186)
(426, 954)
(395, 799)
(720, 816)
(727, 134)
(880, 800)
(446, 926)
(325, 272)
(729, 410)
(893, 771)
(783, 215)
(95, 606)
(813, 633)
(958, 1012)
(132, 245)
(702, 319)
(783, 28)
(716, 725)
(506, 379)
(239, 295)
(340, 172)
(223, 640)
(411, 773)
(259, 853)
(112, 57)
(411, 924)
(426, 213)
(749, 953)
(496, 187)
(108, 768)
(822, 162)
(467, 927)
(82, 684)
(90, 651)
(964, 749)
(274, 768)
(959, 852)
(263, 84)
(571, 339)
(311, 801)
(325, 224)
(322, 496)
(629, 946)
(496, 544)
(928, 829)
(567, 431)
(374, 283)
(556, 98)
(555, 938)
(247, 496)
(1017, 972)
(129, 532)
(395, 637)
(264, 472)
(52, 3)
(730, 942)
(720, 180)
(800, 527)
(486, 328)
(923, 508)
(177, 594)
(740, 251)
(909, 217)
(1020, 854)
(437, 998)
(154, 466)
(268, 250)
(758, 126)
(192, 492)
(376, 164)
(835, 694)
(607, 265)
(39, 516)
(809, 652)
(669, 886)
(884, 593)
(361, 94)
(414, 958)
(136, 649)
(208, 285)
(1008, 264)
(334, 144)
(540, 959)
(637, 1004)
(38, 792)
(51, 796)
(391, 330)
(333, 639)
(603, 151)
(977, 867)
(780, 92)
(427, 1022)
(666, 1000)
(880, 215)
(579, 80)
(527, 16)
(219, 51)
(18, 37)
(961, 928)
(839, 193)
(778, 737)
(567, 75)
(706, 172)
(794, 614)
(270, 1012)
(367, 975)
(655, 395)
(828, 461)
(475, 954)
(519, 389)
(742, 326)
(80, 603)
(823, 408)
(961, 770)
(79, 146)
(314, 949)
(813, 529)
(1011, 420)
(913, 371)
(527, 83)
(137, 417)
(267, 63)
(525, 384)
(157, 290)
(856, 575)
(976, 141)
(1017, 94)
(236, 106)
(269, 85)
(216, 92)
(118, 849)
(915, 205)
(334, 915)
(591, 397)
(277, 361)
(950, 733)
(13, 305)
(822, 534)
(807, 45)
(909, 576)
(694, 525)
(302, 34)
(244, 523)
(767, 205)
(191, 345)
(706, 881)
(328, 870)
(417, 877)
(354, 139)
(567, 674)
(617, 264)
(524, 634)
(989, 517)
(712, 451)
(373, 640)
(732, 131)
(304, 738)
(950, 925)
(799, 189)
(513, 131)
(741, 550)
(27, 737)
(277, 10)
(266, 685)
(647, 39)
(35, 875)
(299, 981)
(71, 753)
(460, 684)
(305, 909)
(437, 908)
(933, 820)
(490, 150)
(726, 765)
(455, 601)
(739, 501)
(55, 243)
(104, 326)
(400, 154)
(90, 413)
(265, 167)
(827, 287)
(420, 231)
(572, 703)
(494, 239)
(990, 361)
(436, 75)
(216, 963)
(435, 764)
(367, 921)
(780, 130)
(710, 800)
(73, 724)
(279, 111)
(112, 36)
(381, 292)
(685, 630)
(656, 2)
(854, 659)
(345, 918)
(57, 388)
(147, 868)
(391, 287)
(724, 341)
(255, 10)
(239, 817)
(52, 165)
(830, 841)
(611, 244)
(626, 1019)
(449, 912)
(4, 743)
(412, 1011)
(245, 373)
(480, 75)
(324, 158)
(942, 604)
(921, 190)
(975, 601)
(438, 188)
(201, 141)
(852, 542)
(60, 565)
(283, 1008)
(92, 667)
(753, 173)
(567, 208)
(640, 111)
(634, 982)
(635, 797)
(276, 265)
(338, 813)
(90, 960)
(58, 319)
(114, 55)
(225, 945)
(74, 751)
(252, 953)
(204, 12)
(618, 13)
(219, 542)
(482, 559)
(749, 856)
(342, 730)
(859, 722)
(303, 15)
(276, 334)
(286, 758)
(499, 142)
(509, 1001)
(544, 851)
(23, 404)
(863, 173)
(272, 938)
(127, 688)
(271, 856)
(112, 837)
(919, 265)
(91, 846)
(712, 398)
(913, 720)
(988, 414)
(667, 335)
(652, 550)
(483, 526)
(34, 290)
(882, 992)
(1010, 917)
(233, 103)
(298, 404)
(756, 394)
(510, 298)
(451, 816)
(485, 284)
(560, 555)
(174, 595)
(708, 364)
(524, 900)
(811, 105)
(513, 608)
(495, 831)
(157, 152)
(119, 294)
(982, 828)
(240, 640)
(213, 19)
(332, 625)
(330, 1011)
(198, 987)
(583, 321)
(45, 419)
(339, 19)
(800, 772)
(392, 837)
(131, 633)
(205, 990)
(242, 246)
(1002, 47)
(145, 219)
(1007, 604)
(593, 193)
(353, 322)
(103, 658)
(628, 234)
(337, 189)
(4, 607)
(407, 315)
(7, 809)
(375, 786)
(1001, 214)
(461, 720)
(884, 644)
(275, 4)
(783, 882)
(958, 672)
(843, 994)
(361, 855)
(845, 384)
(469, 806)
(838, 129)
(647, 765)
(141, 765)
(732, 518)
(301, 317)
(1003, 529)
(903, 269)
(214, 422)
(386, 86)
(145, 455)
(834, 240)
(902, 264)
(843, 803)
(634, 59)
(244, 984)
(734, 780)
(979, 928)
(792, 268)
(527, 762)
(848, 280)
(460, 556)
(734, 90)
(568, 946)
(408, 959)
(914, 881)
(922, 167)
(841, 711)
(344, 824)
(127, 688)
(325, 318)
(813, 142)
(975, 836)
(989, 721)
(45, 971)
(933, 973)
(64, 650)
(650, 1021)
(675, 325)
(271, 429)
(740, 98)
(508, 215)
(112, 104)
(143, 500)
(1023, 417)
(435, 84)
(415, 306)
(421, 882)
(293, 666)
(571, 957)
(819, 446)
(497, 346)
(166, 133)
(105, 601)
(673, 171)
(1011, 728)
(806, 568)
(360, 696)
(455, 910)
(222, 999)
(754, 756)
(115, 621)
(257, 530)
(704, 828)
(760, 120)
(105, 362)
(564, 535)
(757, 952)
(99, 430)
(632, 1005)
(347, 614)
(627, 1022)
(459, 37)
(111, 1023)
(588, 1022)
(303, 53)
(535, 583)
(190, 911)
(728, 98)
(630, 791)
(554, 1002)
(941, 493)
(249, 565)
(146, 31)
(186, 328)
(884, 30)
(177, 763)
(632, 572)
(822, 769)
(373, 603)
(353, 300)
(653, 129)
(812, 528)
(371, 883)
(57, 574)
(737, 82)
(167, 828)
(396, 371)
(681, 274)
(478, 789)
(910, 774)
(751, 295)
(19, 956)
(560, 556)
(6, 821)
(685, 372)
(609, 965)
(4, 648)
(443, 743)
(225, 602)
(924, 651)
(414, 619)
(972, 637)
(842, 899)
(929, 934)
(71, 407)
(1, 155)
(115, 960)
(194, 693)
(498, 312)
(367, 797)
(247, 849)
(240, 740)
(528, 17)
(21, 952)
(963, 713)
(166, 296)
(29, 583)
(637, 430)
(227, 980)
(900, 868)
(151, 325)
(185, 749)
(160, 865)
(96, 753)
(439, 720)
(753, 218)
(940, 741)
(588, 257)
(210, 468)
(245, 274)
(120, 900)
(975, 700)
(181, 956)
(368, 544)
(521, 23)
(994, 451)
(784, 830)
(121, 227)
(145, 913)
(1009, 404)
